%YAML 1.1
%TAG !u! tag:unity3d.com,2011:
--- !u!1001 &3432697012899897507
PrefabInstance:
  m_ObjectHideFlags: 0
  serializedVersion: 2
  m_Modification:
    m_TransformParent: {fileID: 0}
    m_Modifications:
    - target: {fileID: 1284015238244305008, guid: 6c653d903122741a280fd6dc7ad5a22f, type: 3}
      propertyPath: m_SortingLayer
      value: 2
      objectReference: {fileID: 0}
    - target: {fileID: 1284015238244305009, guid: 6c653d903122741a280fd6dc7ad5a22f, type: 3}
      propertyPath: Direction
      value: 0
      objectReference: {fileID: 0}
    - target: {fileID: 1284015238244305009, guid: 6c653d903122741a280fd6dc7ad5a22f, type: 3}
      propertyPath: automatic
      value: 1
      objectReference: {fileID: 0}
    - target: {fileID: 1284015238244305009, guid: 6c653d903122741a280fd6dc7ad5a22f, type: 3}
      propertyPath: interactive
      value: 0
      objectReference: {fileID: 0}
    - target: {fileID: 1284015238244305009, guid: 6c653d903122741a280fd6dc7ad5a22f, type: 3}
      propertyPath: AvailableDirections.Array.size
      value: 3
      objectReference: {fileID: 0}
    - target: {fileID: 1284015238244305009, guid: 6c653d903122741a280fd6dc7ad5a22f, type: 3}
      propertyPath: UnavailableDirections.Array.size
      value: 1
      objectReference: {fileID: 0}
    - target: {fileID: 1284015238244305009, guid: 6c653d903122741a280fd6dc7ad5a22f, type: 3}
      propertyPath: AvailableDirections.Array.data[1]
      value: 1
      objectReference: {fileID: 0}
    - target: {fileID: 1284015238244305009, guid: 6c653d903122741a280fd6dc7ad5a22f, type: 3}
      propertyPath: AvailableDirections.Array.data[2]
      value: 3
      objectReference: {fileID: 0}
    - target: {fileID: 1284015238244305009, guid: 6c653d903122741a280fd6dc7ad5a22f, type: 3}
      propertyPath: UnavailableDirections.Array.data[0]
      value: 2
      objectReference: {fileID: 0}
    - target: {fileID: 1284015238244305013, guid: 6c653d903122741a280fd6dc7ad5a22f, type: 3}
      propertyPath: m_Name
      value: SignPost_NWE
      objectReference: {fileID: 0}
    - target: {fileID: 1284015238244305014, guid: 6c653d903122741a280fd6dc7ad5a22f, type: 3}
      propertyPath: m_RootOrder
      value: 0
      objectReference: {fileID: 0}
    - target: {fileID: 1284015238244305014, guid: 6c653d903122741a280fd6dc7ad5a22f, type: 3}
      propertyPath: m_LocalPosition.x
      value: 0
      objectReference: {fileID: 0}
    - target: {fileID: 1284015238244305014, guid: 6c653d903122741a280fd6dc7ad5a22f, type: 3}
      propertyPath: m_LocalPosition.y
      value: 0
      objectReference: {fileID: 0}
    - target: {fileID: 1284015238244305014, guid: 6c653d903122741a280fd6dc7ad5a22f, type: 3}
      propertyPath: m_LocalPosition.z
      value: 0
      objectReference: {fileID: 0}
    - target: {fileID: 1284015238244305014, guid: 6c653d903122741a280fd6dc7ad5a22f, type: 3}
      propertyPath: m_LocalRotation.w
      value: 1
      objectReference: {fileID: 0}
    - target: {fileID: 1284015238244305014, guid: 6c653d903122741a280fd6dc7ad5a22f, type: 3}
      propertyPath: m_LocalRotation.x
      value: 0
      objectReference: {fileID: 0}
    - target: {fileID: 1284015238244305014, guid: 6c653d903122741a280fd6dc7ad5a22f, type: 3}
      propertyPath: m_LocalRotation.y
      value: 0
      objectReference: {fileID: 0}
    - target: {fileID: 1284015238244305014, guid: 6c653d903122741a280fd6dc7ad5a22f, type: 3}
      propertyPath: m_LocalRotation.z
      value: 0
      objectReference: {fileID: 0}
    - target: {fileID: 1284015238244305014, guid: 6c653d903122741a280fd6dc7ad5a22f, type: 3}
      propertyPath: m_LocalEulerAnglesHint.x
      value: 0
      objectReference: {fileID: 0}
    - target: {fileID: 1284015238244305014, guid: 6c653d903122741a280fd6dc7ad5a22f, type: 3}
      propertyPath: m_LocalEulerAnglesHint.y
      value: 0
      objectReference: {fileID: 0}
    - target: {fileID: 1284015238244305014, guid: 6c653d903122741a280fd6dc7ad5a22f, type: 3}
      propertyPath: m_LocalEulerAnglesHint.z
      value: 0
      objectReference: {fileID: 0}
    - target: {fileID: 1284015238244305015, guid: 6c653d903122741a280fd6dc7ad5a22f, type: 3}
      propertyPath: m_SpriteTilingProperty.border.w
      value: 0
      objectReference: {fileID: 0}
    - target: {fileID: 1284015238244305015, guid: 6c653d903122741a280fd6dc7ad5a22f, type: 3}
      propertyPath: m_SpriteTilingProperty.border.x
      value: 0
      objectReference: {fileID: 0}
    - target: {fileID: 1284015238244305015, guid: 6c653d903122741a280fd6dc7ad5a22f, type: 3}
      propertyPath: m_SpriteTilingProperty.border.y
      value: 0
      objectReference: {fileID: 0}
    - target: {fileID: 1284015238244305015, guid: 6c653d903122741a280fd6dc7ad5a22f, type: 3}
      propertyPath: m_SpriteTilingProperty.border.z
      value: 0
      objectReference: {fileID: 0}
    - target: {fileID: 1284015238244305015, guid: 6c653d903122741a280fd6dc7ad5a22f, type: 3}
      propertyPath: m_SpriteTilingProperty.drawMode
      value: 0
      objectReference: {fileID: 0}
    - target: {fileID: 1284015238244305015, guid: 6c653d903122741a280fd6dc7ad5a22f, type: 3}
      propertyPath: m_SpriteTilingProperty.oldSize.x
      value: 1
      objectReference: {fileID: 0}
    - target: {fileID: 1284015238244305015, guid: 6c653d903122741a280fd6dc7ad5a22f, type: 3}
      propertyPath: m_SpriteTilingProperty.oldSize.y
      value: 1.5
      objectReference: {fileID: 0}
    m_RemovedComponents: []
  m_SourcePrefab: {fileID: 100100000, guid: 6c653d903122741a280fd6dc7ad5a22f, type: 3}
