%YAML 1.1
%TAG !u! tag:unity3d.com,2011:
--- !u!1 &2346811082725851319
GameObject:
  m_ObjectHideFlags: 0
  m_CorrespondingSourceObject: {fileID: 0}
  m_PrefabInstance: {fileID: 0}
  m_PrefabAsset: {fileID: 0}
  serializedVersion: 6
  m_Component:
  - component: {fileID: 3667713708003776879}
  - component: {fileID: 8338941105682497209}
  - component: {fileID: 562043251232037100}
  - component: {fileID: 5757253686838513290}
  - component: {fileID: 777139456015419808}
  m_Layer: 0
  m_Name: Level Tilemap
  m_TagString: Untagged
  m_Icon: {fileID: 0}
  m_NavMeshLayer: 0
  m_StaticEditorFlags: 0
  m_IsActive: 1
--- !u!4 &3667713708003776879
Transform:
  m_ObjectHideFlags: 0
  m_CorrespondingSourceObject: {fileID: 0}
  m_PrefabInstance: {fileID: 0}
  m_PrefabAsset: {fileID: 0}
  m_GameObject: {fileID: 2346811082725851319}
  m_LocalRotation: {x: -0, y: -0, z: -0, w: 1}
  m_LocalPosition: {x: 0, y: 0, z: 0}
  m_LocalScale: {x: 1, y: 1, z: 1}
  m_Children: []
  m_Father: {fileID: 583625592097664823}
  m_RootOrder: 0
  m_LocalEulerAnglesHint: {x: 0, y: 0, z: 0}
--- !u!1839735485 &8338941105682497209
Tilemap:
  m_ObjectHideFlags: 0
  m_CorrespondingSourceObject: {fileID: 0}
  m_PrefabInstance: {fileID: 0}
  m_PrefabAsset: {fileID: 0}
  m_GameObject: {fileID: 2346811082725851319}
  m_Enabled: 1
  m_Tiles:
  - first: {x: 5, y: 1, z: 0}
    second:
      serializedVersion: 2
      m_TileIndex: 13
      m_TileSpriteIndex: 9
      m_TileMatrixIndex: 0
      m_TileColorIndex: 6
      m_TileObjectToInstantiateIndex: 65535
      dummyAlignment: 0
      m_AllTileFlags: 1073741825
  m_AnimatedTiles: {}
  m_TileAssetArray:
  - m_RefCount: 0
    m_Data: {fileID: 0}
  - m_RefCount: 0
    m_Data: {fileID: 0}
  - m_RefCount: 0
    m_Data: {fileID: 0}
  - m_RefCount: 0
    m_Data: {fileID: 0}
  - m_RefCount: 0
    m_Data: {fileID: 0}
  - m_RefCount: 0
    m_Data: {fileID: 0}
  - m_RefCount: 0
    m_Data: {fileID: 0}
  - m_RefCount: 0
    m_Data: {fileID: 0}
  - m_RefCount: 0
    m_Data: {fileID: 0}
  - m_RefCount: 0
    m_Data: {fileID: 0}
  - m_RefCount: 0
    m_Data: {fileID: 0}
  - m_RefCount: 0
    m_Data: {fileID: 0}
  - m_RefCount: 0
    m_Data: {fileID: 0}
  - m_RefCount: 1
    m_Data: {fileID: 11400000, guid: 7f3582baee04b4cf7aa293d2ce88fcca, type: 2}
  m_TileSpriteArray:
  - m_RefCount: 0
    m_Data: {fileID: 0}
  - m_RefCount: 0
    m_Data: {fileID: 0}
  - m_RefCount: 0
    m_Data: {fileID: 0}
  - m_RefCount: 0
    m_Data: {fileID: 0}
  - m_RefCount: 0
    m_Data: {fileID: 0}
  - m_RefCount: 0
    m_Data: {fileID: 0}
  - m_RefCount: 0
    m_Data: {fileID: 0}
  - m_RefCount: 0
    m_Data: {fileID: 0}
  - m_RefCount: 0
    m_Data: {fileID: 0}
  - m_RefCount: 1
    m_Data: {fileID: 21300000, guid: 65abfb5ab10bc479a803628465d3b819, type: 3}
  m_TileMatrixArray:
  - m_RefCount: 1
    m_Data:
      e00: 1
      e01: 0
      e02: 0
      e03: 0
      e10: 0
      e11: 1
      e12: 0
      e13: 0
      e20: 0
      e21: 0
      e22: 1
      e23: 0
      e30: 0
      e31: 0
      e32: 0
      e33: 1
  - m_RefCount: 0
    m_Data:
      e00: -1
      e01: 0
      e02: 0
      e03: 0
      e10: -0
      e11: 1
      e12: 0
      e13: 0
      e20: -0
      e21: 0
      e22: 1
      e23: 0
      e30: 0
      e31: 0
      e32: 0
      e33: 1
  m_TileColorArray:
  - m_RefCount: 0
    m_Data: {r: 1, g: 1, b: 1, a: 1}
  - m_RefCount: 0
    m_Data: {r: 1, g: 0.5990566, b: 0.5990566, a: 1}
  - m_RefCount: 0
    m_Data: {r: 1, g: 0.6, b: 0.6, a: 1}
  - m_RefCount: 0
    m_Data: {r: 0.6676319, g: 1, b: 0.6, a: 1}
  - m_RefCount: 0
    m_Data: {r: 0.6666667, g: 1, b: 0.6, a: 1}
  - m_RefCount: 0
    m_Data: {r: 0.3764706, g: 0.49019608, b: 1, a: 1}
  - m_RefCount: 1
    m_Data: {r: 1, g: 0, b: 0, a: 1}
  m_TileObjectToInstantiateArray:
  - m_RefCount: 0
    m_Data: {fileID: 0}
  - m_RefCount: 0
    m_Data: {fileID: 0}
  m_AnimationFrameRate: 1
  m_Color: {r: 1, g: 1, b: 1, a: 1}
  m_Origin: {x: -5, y: -6, z: 0}
  m_Size: {x: 30, y: 32, z: 1}
  m_TileAnchor: {x: 0.5, y: 0.5, z: 0}
  m_TileOrientation: 0
  m_TileOrientationMatrix:
    e00: 1
    e01: 0
    e02: 0
    e03: 0
    e10: 0
    e11: 1
    e12: 0
    e13: 0
    e20: 0
    e21: 0
    e22: 1
    e23: 0
    e30: 0
    e31: 0
    e32: 0
    e33: 1
--- !u!483693784 &562043251232037100
TilemapRenderer:
  m_ObjectHideFlags: 0
  m_CorrespondingSourceObject: {fileID: 0}
  m_PrefabInstance: {fileID: 0}
  m_PrefabAsset: {fileID: 0}
  m_GameObject: {fileID: 2346811082725851319}
  m_Enabled: 1
  m_CastShadows: 0
  m_ReceiveShadows: 0
  m_DynamicOccludee: 1
  m_MotionVectors: 1
  m_LightProbeUsage: 0
  m_ReflectionProbeUsage: 0
  m_RayTracingMode: 0
  m_RayTraceProcedural: 0
  m_RenderingLayerMask: 1
  m_RendererPriority: 0
  m_Materials:
  - {fileID: 2100000, guid: 7e3e2ff4b7a314ac690d448e0cd1d8bf, type: 2}
  m_StaticBatchInfo:
    firstSubMesh: 0
    subMeshCount: 0
  m_StaticBatchRoot: {fileID: 0}
  m_ProbeAnchor: {fileID: 0}
  m_LightProbeVolumeOverride: {fileID: 0}
  m_ScaleInLightmap: 1
  m_ReceiveGI: 1
  m_PreserveUVs: 0
  m_IgnoreNormalsForChartDetection: 0
  m_ImportantGI: 0
  m_StitchLightmapSeams: 1
  m_SelectedEditorRenderState: 0
  m_MinimumChartSize: 4
  m_AutoUVMaxDistance: 0.5
  m_AutoUVMaxAngle: 89
  m_LightmapParameters: {fileID: 0}
  m_SortingLayerID: -869314581
  m_SortingLayer: 2
  m_SortingOrder: 0
  m_ChunkSize: {x: 32, y: 32, z: 32}
  m_ChunkCullingBounds: {x: 0, y: 0.4225, z: 0}
  m_MaxChunkCount: 16
  m_MaxFrameAge: 16
  m_SortOrder: 3
  m_Mode: 1
  m_DetectChunkCullingBounds: 0
  m_MaskInteraction: 0
--- !u!114 &5757253686838513290
MonoBehaviour:
  m_ObjectHideFlags: 0
  m_CorrespondingSourceObject: {fileID: 0}
  m_PrefabInstance: {fileID: 0}
  m_PrefabAsset: {fileID: 0}
  m_GameObject: {fileID: 2346811082725851319}
  m_Enabled: 1
  m_EditorHideFlags: 0
  m_Script: {fileID: 11500000, guid: ada9e2c95cf764145b034e430d6cb893, type: 3}
  m_Name: 
  m_EditorClassIdentifier: 
--- !u!114 &777139456015419808
MonoBehaviour:
  m_ObjectHideFlags: 0
  m_CorrespondingSourceObject: {fileID: 0}
  m_PrefabInstance: {fileID: 0}
  m_PrefabAsset: {fileID: 0}
  m_GameObject: {fileID: 2346811082725851319}
  m_Enabled: 1
  m_EditorHideFlags: 0
  m_Script: {fileID: 11500000, guid: 430a07bdb252c47fdb1b4bdba8f2600c, type: 3}
  m_Name: 
  m_EditorClassIdentifier: 
  baseTilemap: {fileID: 1941336632453615481}
--- !u!1 &3971192675114533686
GameObject:
  m_ObjectHideFlags: 0
  m_CorrespondingSourceObject: {fileID: 0}
  m_PrefabInstance: {fileID: 0}
  m_PrefabAsset: {fileID: 0}
  serializedVersion: 6
  m_Component:
  - component: {fileID: 3971192675114533681}
  - component: {fileID: 1588858008131842524}
  m_Layer: 0
  m_Name: Level1
  m_TagString: Untagged
  m_Icon: {fileID: 0}
  m_NavMeshLayer: 0
  m_StaticEditorFlags: 0
  m_IsActive: 1
--- !u!4 &3971192675114533681
Transform:
  m_ObjectHideFlags: 0
  m_CorrespondingSourceObject: {fileID: 0}
  m_PrefabInstance: {fileID: 0}
  m_PrefabAsset: {fileID: 0}
  m_GameObject: {fileID: 3971192675114533686}
  m_LocalRotation: {x: 0, y: 0, z: 0, w: 1}
  m_LocalPosition: {x: 0, y: 0, z: 0}
  m_LocalScale: {x: 1, y: 1, z: 1}
  m_Children:
  - {fileID: 583625592097664823}
  - {fileID: 8188234822464681067}
  - {fileID: 2818137530926044975}
  - {fileID: 1216710542688893639}
  - {fileID: 1534746213181384533}
  - {fileID: 2351787013803846666}
  - {fileID: 1663734080283700309}
  - {fileID: 8198513668924252870}
  - {fileID: 4130752419822119684}
  - {fileID: 8140459850604364530}
  - {fileID: 5839052563362077461}
  - {fileID: 2071375504548295551}
  - {fileID: 87274583217739065}
  - {fileID: 8187689959841610798}
  - {fileID: 217999279444305147}
  - {fileID: 6416377390757249388}
  - {fileID: 8138858742466510744}
  - {fileID: 4409544629202358469}
  - {fileID: 5303731775725383184}
  m_Father: {fileID: 0}
  m_RootOrder: 0
  m_LocalEulerAnglesHint: {x: 0, y: 0, z: 0}
--- !u!114 &1588858008131842524
MonoBehaviour:
  m_ObjectHideFlags: 0
  m_CorrespondingSourceObject: {fileID: 0}
  m_PrefabInstance: {fileID: 0}
  m_PrefabAsset: {fileID: 0}
  m_GameObject: {fileID: 3971192675114533686}
  m_Enabled: 1
  m_EditorHideFlags: 0
  m_Script: {fileID: 11500000, guid: 4d876197740c746a08917b40c9187511, type: 3}
  m_Name: 
  m_EditorClassIdentifier: 
  TilemapBase: {fileID: 1941336632453615481}
  TilemapCar: {fileID: 4453685198502240519}
  TilemapLevel: {fileID: 8338941105682497209}
  GridSize: {x: 7, y: 7}
  LevelName: Kotakan Bukan Bunderan
--- !u!1 &5635710976906029957
GameObject:
  m_ObjectHideFlags: 0
  m_CorrespondingSourceObject: {fileID: 0}
  m_PrefabInstance: {fileID: 0}
  m_PrefabAsset: {fileID: 0}
  serializedVersion: 6
  m_Component:
  - component: {fileID: 8937660336433234560}
  - component: {fileID: 1941336632453615481}
  - component: {fileID: 1549085615476228741}
  m_Layer: 0
  m_Name: Base Tilemap
  m_TagString: Untagged
  m_Icon: {fileID: 0}
  m_NavMeshLayer: 0
  m_StaticEditorFlags: 0
  m_IsActive: 1
--- !u!4 &8937660336433234560
Transform:
  m_ObjectHideFlags: 0
  m_CorrespondingSourceObject: {fileID: 0}
  m_PrefabInstance: {fileID: 0}
  m_PrefabAsset: {fileID: 0}
  m_GameObject: {fileID: 5635710976906029957}
  m_LocalRotation: {x: -0, y: -0, z: -0, w: 1}
  m_LocalPosition: {x: 0, y: 0, z: 0}
  m_LocalScale: {x: 1, y: 1, z: 1}
  m_Children: []
  m_Father: {fileID: 583625592097664823}
  m_RootOrder: 3
  m_LocalEulerAnglesHint: {x: 0, y: 0, z: 0}
--- !u!1839735485 &1941336632453615481
Tilemap:
  m_ObjectHideFlags: 0
  m_CorrespondingSourceObject: {fileID: 0}
  m_PrefabInstance: {fileID: 0}
  m_PrefabAsset: {fileID: 0}
  m_GameObject: {fileID: 5635710976906029957}
  m_Enabled: 1
  m_Tiles:
  - first: {x: 0, y: 0, z: 0}
    second:
      serializedVersion: 2
      m_TileIndex: 13
      m_TileSpriteIndex: 11
      m_TileMatrixIndex: 0
      m_TileColorIndex: 0
      m_TileObjectToInstantiateIndex: 65535
      dummyAlignment: 0
      m_AllTileFlags: 1073741825
  - first: {x: 1, y: 0, z: 0}
    second:
      serializedVersion: 2
      m_TileIndex: 14
      m_TileSpriteIndex: 12
      m_TileMatrixIndex: 0
      m_TileColorIndex: 0
      m_TileObjectToInstantiateIndex: 65535
      dummyAlignment: 0
      m_AllTileFlags: 1073741825
  - first: {x: 2, y: 0, z: 0}
    second:
      serializedVersion: 2
      m_TileIndex: 14
      m_TileSpriteIndex: 12
      m_TileMatrixIndex: 0
      m_TileColorIndex: 0
      m_TileObjectToInstantiateIndex: 65535
      dummyAlignment: 0
      m_AllTileFlags: 1073741825
  - first: {x: 3, y: 0, z: 0}
    second:
      serializedVersion: 2
      m_TileIndex: 16
      m_TileSpriteIndex: 14
      m_TileMatrixIndex: 0
      m_TileColorIndex: 0
      m_TileObjectToInstantiateIndex: 65535
      dummyAlignment: 0
      m_AllTileFlags: 1073741825
  - first: {x: 4, y: 0, z: 0}
    second:
      serializedVersion: 2
      m_TileIndex: 9
      m_TileSpriteIndex: 9
      m_TileMatrixIndex: 0
      m_TileColorIndex: 0
      m_TileObjectToInstantiateIndex: 65535
      dummyAlignment: 0
      m_AllTileFlags: 1073741825
  - first: {x: 5, y: 0, z: 0}
    second:
      serializedVersion: 2
      m_TileIndex: 9
      m_TileSpriteIndex: 9
      m_TileMatrixIndex: 0
      m_TileColorIndex: 0
      m_TileObjectToInstantiateIndex: 65535
      dummyAlignment: 0
      m_AllTileFlags: 1073741825
  - first: {x: 6, y: 0, z: 0}
    second:
      serializedVersion: 2
      m_TileIndex: 9
      m_TileSpriteIndex: 9
      m_TileMatrixIndex: 0
      m_TileColorIndex: 0
      m_TileObjectToInstantiateIndex: 65535
      dummyAlignment: 0
      m_AllTileFlags: 1073741825
  - first: {x: 0, y: 1, z: 0}
    second:
      serializedVersion: 2
      m_TileIndex: 15
      m_TileSpriteIndex: 13
      m_TileMatrixIndex: 0
      m_TileColorIndex: 0
      m_TileObjectToInstantiateIndex: 65535
      dummyAlignment: 0
      m_AllTileFlags: 1073741825
  - first: {x: 1, y: 1, z: 0}
    second:
      serializedVersion: 2
      m_TileIndex: 17
      m_TileSpriteIndex: 15
      m_TileMatrixIndex: 0
      m_TileColorIndex: 0
      m_TileObjectToInstantiateIndex: 65535
      dummyAlignment: 0
      m_AllTileFlags: 1073741829
  - first: {x: 2, y: 1, z: 0}
    second:
      serializedVersion: 2
      m_TileIndex: 20
      m_TileSpriteIndex: 18
      m_TileMatrixIndex: 0
      m_TileColorIndex: 0
      m_TileObjectToInstantiateIndex: 65535
      dummyAlignment: 0
      m_AllTileFlags: 1073741829
  - first: {x: 3, y: 1, z: 0}
    second:
      serializedVersion: 2
      m_TileIndex: 20
      m_TileSpriteIndex: 18
      m_TileMatrixIndex: 0
      m_TileColorIndex: 0
      m_TileObjectToInstantiateIndex: 65535
      dummyAlignment: 0
      m_AllTileFlags: 1073741829
  - first: {x: 4, y: 1, z: 0}
    second:
      serializedVersion: 2
      m_TileIndex: 20
      m_TileSpriteIndex: 18
      m_TileMatrixIndex: 0
      m_TileColorIndex: 0
      m_TileObjectToInstantiateIndex: 65535
      dummyAlignment: 0
      m_AllTileFlags: 1073741829
  - first: {x: 5, y: 1, z: 0}
    second:
      serializedVersion: 2
      m_TileIndex: 18
      m_TileSpriteIndex: 16
      m_TileMatrixIndex: 0
      m_TileColorIndex: 0
      m_TileObjectToInstantiateIndex: 65535
      dummyAlignment: 0
      m_AllTileFlags: 1073741829
  - first: {x: 6, y: 1, z: 0}
    second:
      serializedVersion: 2
      m_TileIndex: 9
      m_TileSpriteIndex: 9
      m_TileMatrixIndex: 0
      m_TileColorIndex: 0
      m_TileObjectToInstantiateIndex: 65535
      dummyAlignment: 0
      m_AllTileFlags: 1073741825
  - first: {x: 0, y: 2, z: 0}
    second:
      serializedVersion: 2
      m_TileIndex: 15
      m_TileSpriteIndex: 13
      m_TileMatrixIndex: 0
      m_TileColorIndex: 0
      m_TileObjectToInstantiateIndex: 65535
      dummyAlignment: 0
      m_AllTileFlags: 1073741825
  - first: {x: 1, y: 2, z: 0}
    second:
      serializedVersion: 2
      m_TileIndex: 22
      m_TileSpriteIndex: 20
      m_TileMatrixIndex: 0
      m_TileColorIndex: 0
      m_TileObjectToInstantiateIndex: 65535
      dummyAlignment: 0
      m_AllTileFlags: 1073741829
  - first: {x: 2, y: 2, z: 0}
    second:
      serializedVersion: 2
      m_TileIndex: 13
      m_TileSpriteIndex: 11
      m_TileMatrixIndex: 0
      m_TileColorIndex: 0
      m_TileObjectToInstantiateIndex: 65535
      dummyAlignment: 0
      m_AllTileFlags: 1073741825
  - first: {x: 3, y: 2, z: 0}
    second:
      serializedVersion: 2
      m_TileIndex: 13
      m_TileSpriteIndex: 11
      m_TileMatrixIndex: 0
      m_TileColorIndex: 0
      m_TileObjectToInstantiateIndex: 65535
      dummyAlignment: 0
      m_AllTileFlags: 1073741825
  - first: {x: 4, y: 2, z: 0}
    second:
      serializedVersion: 2
      m_TileIndex: 15
      m_TileSpriteIndex: 13
      m_TileMatrixIndex: 0
      m_TileColorIndex: 0
      m_TileObjectToInstantiateIndex: 65535
      dummyAlignment: 0
      m_AllTileFlags: 1073741825
  - first: {x: 5, y: 2, z: 0}
    second:
      serializedVersion: 2
      m_TileIndex: 22
      m_TileSpriteIndex: 20
      m_TileMatrixIndex: 0
      m_TileColorIndex: 0
      m_TileObjectToInstantiateIndex: 65535
      dummyAlignment: 0
      m_AllTileFlags: 1073741829
  - first: {x: 6, y: 2, z: 0}
    second:
      serializedVersion: 2
      m_TileIndex: 9
      m_TileSpriteIndex: 9
      m_TileMatrixIndex: 0
      m_TileColorIndex: 0
      m_TileObjectToInstantiateIndex: 65535
      dummyAlignment: 0
      m_AllTileFlags: 1073741825
  - first: {x: 0, y: 3, z: 0}
    second:
      serializedVersion: 2
      m_TileIndex: 15
      m_TileSpriteIndex: 13
      m_TileMatrixIndex: 0
      m_TileColorIndex: 0
      m_TileObjectToInstantiateIndex: 65535
      dummyAlignment: 0
      m_AllTileFlags: 1073741825
  - first: {x: 1, y: 3, z: 0}
    second:
      serializedVersion: 2
      m_TileIndex: 22
      m_TileSpriteIndex: 20
      m_TileMatrixIndex: 0
      m_TileColorIndex: 0
      m_TileObjectToInstantiateIndex: 65535
      dummyAlignment: 0
      m_AllTileFlags: 1073741829
  - first: {x: 2, y: 3, z: 0}
    second:
      serializedVersion: 2
      m_TileIndex: 13
      m_TileSpriteIndex: 11
      m_TileMatrixIndex: 0
      m_TileColorIndex: 0
      m_TileObjectToInstantiateIndex: 65535
      dummyAlignment: 0
      m_AllTileFlags: 1073741825
  - first: {x: 3, y: 3, z: 0}
    second:
      serializedVersion: 2
      m_TileIndex: 13
      m_TileSpriteIndex: 11
      m_TileMatrixIndex: 0
      m_TileColorIndex: 0
      m_TileObjectToInstantiateIndex: 65535
      dummyAlignment: 0
      m_AllTileFlags: 1073741825
  - first: {x: 4, y: 3, z: 0}
    second:
      serializedVersion: 2
      m_TileIndex: 15
      m_TileSpriteIndex: 13
      m_TileMatrixIndex: 0
      m_TileColorIndex: 0
      m_TileObjectToInstantiateIndex: 65535
      dummyAlignment: 0
      m_AllTileFlags: 1073741825
  - first: {x: 5, y: 3, z: 0}
    second:
      serializedVersion: 2
      m_TileIndex: 22
      m_TileSpriteIndex: 20
      m_TileMatrixIndex: 0
      m_TileColorIndex: 0
      m_TileObjectToInstantiateIndex: 65535
      dummyAlignment: 0
      m_AllTileFlags: 1073741829
  - first: {x: 6, y: 3, z: 0}
    second:
      serializedVersion: 2
      m_TileIndex: 9
      m_TileSpriteIndex: 9
      m_TileMatrixIndex: 0
      m_TileColorIndex: 0
      m_TileObjectToInstantiateIndex: 65535
      dummyAlignment: 0
      m_AllTileFlags: 1073741825
  - first: {x: 0, y: 4, z: 0}
    second:
      serializedVersion: 2
      m_TileIndex: 15
      m_TileSpriteIndex: 13
      m_TileMatrixIndex: 0
      m_TileColorIndex: 0
      m_TileObjectToInstantiateIndex: 65535
      dummyAlignment: 0
      m_AllTileFlags: 1073741825
  - first: {x: 1, y: 4, z: 0}
    second:
      serializedVersion: 2
      m_TileIndex: 22
      m_TileSpriteIndex: 20
      m_TileMatrixIndex: 0
      m_TileColorIndex: 0
      m_TileObjectToInstantiateIndex: 65535
      dummyAlignment: 0
      m_AllTileFlags: 1073741829
  - first: {x: 2, y: 4, z: 0}
    second:
      serializedVersion: 2
      m_TileIndex: 14
      m_TileSpriteIndex: 12
      m_TileMatrixIndex: 0
      m_TileColorIndex: 0
      m_TileObjectToInstantiateIndex: 65535
      dummyAlignment: 0
      m_AllTileFlags: 1073741825
  - first: {x: 3, y: 4, z: 0}
    second:
      serializedVersion: 2
      m_TileIndex: 14
      m_TileSpriteIndex: 12
      m_TileMatrixIndex: 0
      m_TileColorIndex: 0
      m_TileObjectToInstantiateIndex: 65535
      dummyAlignment: 0
      m_AllTileFlags: 1073741825
  - first: {x: 4, y: 4, z: 0}
    second:
      serializedVersion: 2
      m_TileIndex: 16
      m_TileSpriteIndex: 14
      m_TileMatrixIndex: 0
      m_TileColorIndex: 0
      m_TileObjectToInstantiateIndex: 65535
      dummyAlignment: 0
      m_AllTileFlags: 1073741825
  - first: {x: 5, y: 4, z: 0}
    second:
      serializedVersion: 2
      m_TileIndex: 22
      m_TileSpriteIndex: 20
      m_TileMatrixIndex: 0
      m_TileColorIndex: 0
      m_TileObjectToInstantiateIndex: 65535
      dummyAlignment: 0
      m_AllTileFlags: 1073741829
  - first: {x: 6, y: 4, z: 0}
    second:
      serializedVersion: 2
      m_TileIndex: 9
      m_TileSpriteIndex: 9
      m_TileMatrixIndex: 0
      m_TileColorIndex: 0
      m_TileObjectToInstantiateIndex: 65535
      dummyAlignment: 0
      m_AllTileFlags: 1073741825
  - first: {x: 0, y: 5, z: 0}
    second:
      serializedVersion: 2
      m_TileIndex: 15
      m_TileSpriteIndex: 13
      m_TileMatrixIndex: 0
      m_TileColorIndex: 0
      m_TileObjectToInstantiateIndex: 65535
      dummyAlignment: 0
      m_AllTileFlags: 1073741825
  - first: {x: 1, y: 5, z: 0}
    second:
      serializedVersion: 2
      m_TileIndex: 19
      m_TileSpriteIndex: 17
      m_TileMatrixIndex: 0
      m_TileColorIndex: 0
      m_TileObjectToInstantiateIndex: 65535
      dummyAlignment: 0
      m_AllTileFlags: 1073741829
  - first: {x: 2, y: 5, z: 0}
    second:
      serializedVersion: 2
      m_TileIndex: 20
      m_TileSpriteIndex: 18
      m_TileMatrixIndex: 0
      m_TileColorIndex: 0
      m_TileObjectToInstantiateIndex: 65535
      dummyAlignment: 0
      m_AllTileFlags: 1073741829
  - first: {x: 3, y: 5, z: 0}
    second:
      serializedVersion: 2
      m_TileIndex: 20
      m_TileSpriteIndex: 18
      m_TileMatrixIndex: 0
      m_TileColorIndex: 0
      m_TileObjectToInstantiateIndex: 65535
      dummyAlignment: 0
      m_AllTileFlags: 1073741829
  - first: {x: 4, y: 5, z: 0}
    second:
      serializedVersion: 2
      m_TileIndex: 20
      m_TileSpriteIndex: 18
      m_TileMatrixIndex: 0
      m_TileColorIndex: 0
      m_TileObjectToInstantiateIndex: 65535
      dummyAlignment: 0
      m_AllTileFlags: 1073741829
  - first: {x: 5, y: 5, z: 0}
    second:
      serializedVersion: 2
      m_TileIndex: 21
      m_TileSpriteIndex: 19
      m_TileMatrixIndex: 0
      m_TileColorIndex: 0
      m_TileObjectToInstantiateIndex: 65535
      dummyAlignment: 0
      m_AllTileFlags: 1073741829
  - first: {x: 6, y: 5, z: 0}
    second:
      serializedVersion: 2
      m_TileIndex: 9
      m_TileSpriteIndex: 9
      m_TileMatrixIndex: 0
      m_TileColorIndex: 0
      m_TileObjectToInstantiateIndex: 65535
      dummyAlignment: 0
      m_AllTileFlags: 1073741825
  - first: {x: 0, y: 6, z: 0}
    second:
      serializedVersion: 2
      m_TileIndex: 15
      m_TileSpriteIndex: 13
      m_TileMatrixIndex: 0
      m_TileColorIndex: 0
      m_TileObjectToInstantiateIndex: 65535
      dummyAlignment: 0
      m_AllTileFlags: 1073741825
  - first: {x: 1, y: 6, z: 0}
    second:
      serializedVersion: 2
      m_TileIndex: 9
      m_TileSpriteIndex: 9
      m_TileMatrixIndex: 0
      m_TileColorIndex: 0
      m_TileObjectToInstantiateIndex: 65535
      dummyAlignment: 0
      m_AllTileFlags: 1073741825
  - first: {x: 2, y: 6, z: 0}
    second:
      serializedVersion: 2
      m_TileIndex: 9
      m_TileSpriteIndex: 9
      m_TileMatrixIndex: 0
      m_TileColorIndex: 0
      m_TileObjectToInstantiateIndex: 65535
      dummyAlignment: 0
      m_AllTileFlags: 1073741825
  - first: {x: 3, y: 6, z: 0}
    second:
      serializedVersion: 2
      m_TileIndex: 9
      m_TileSpriteIndex: 9
      m_TileMatrixIndex: 0
      m_TileColorIndex: 0
      m_TileObjectToInstantiateIndex: 65535
      dummyAlignment: 0
      m_AllTileFlags: 1073741825
  - first: {x: 4, y: 6, z: 0}
    second:
      serializedVersion: 2
      m_TileIndex: 9
      m_TileSpriteIndex: 9
      m_TileMatrixIndex: 0
      m_TileColorIndex: 0
      m_TileObjectToInstantiateIndex: 65535
      dummyAlignment: 0
      m_AllTileFlags: 1073741825
  - first: {x: 5, y: 6, z: 0}
    second:
      serializedVersion: 2
      m_TileIndex: 9
      m_TileSpriteIndex: 9
      m_TileMatrixIndex: 0
      m_TileColorIndex: 0
      m_TileObjectToInstantiateIndex: 65535
      dummyAlignment: 0
      m_AllTileFlags: 1073741825
  - first: {x: 6, y: 6, z: 0}
    second:
      serializedVersion: 2
      m_TileIndex: 9
      m_TileSpriteIndex: 9
      m_TileMatrixIndex: 0
      m_TileColorIndex: 0
      m_TileObjectToInstantiateIndex: 65535
      dummyAlignment: 0
      m_AllTileFlags: 1073741825
  m_AnimatedTiles: {}
  m_TileAssetArray:
  - m_RefCount: 0
    m_Data: {fileID: 0}
  - m_RefCount: 0
    m_Data: {fileID: 0}
  - m_RefCount: 0
    m_Data: {fileID: 0}
  - m_RefCount: 0
    m_Data: {fileID: 0}
  - m_RefCount: 0
    m_Data: {fileID: 0}
  - m_RefCount: 0
    m_Data: {fileID: 0}
  - m_RefCount: 0
    m_Data: {fileID: 0}
  - m_RefCount: 0
    m_Data: {fileID: 0}
  - m_RefCount: 0
    m_Data: {fileID: 0}
  - m_RefCount: 14
    m_Data: {fileID: 11400000, guid: 90dc69f1343ae4c34877729f75cb24fd, type: 2}
  - m_RefCount: 0
    m_Data: {fileID: 0}
  - m_RefCount: 0
    m_Data: {fileID: 0}
  - m_RefCount: 0
    m_Data: {fileID: 0}
  - m_RefCount: 5
    m_Data: {fileID: 11400000, guid: 1f69f367550894d6d8e99b30fba3a1c2, type: 2}
  - m_RefCount: 4
    m_Data: {fileID: 11400000, guid: e97b0c8c4aaef423a93fb6986e8eb26a, type: 2}
  - m_RefCount: 8
    m_Data: {fileID: 11400000, guid: 9c5579229897347f7a73b1ecdd8259b5, type: 2}
  - m_RefCount: 2
    m_Data: {fileID: 11400000, guid: 6cc743fcb103b4187a894a33003d8745, type: 2}
  - m_RefCount: 1
    m_Data: {fileID: 11400000, guid: 93844e34b72c84c30b576512582dc4de, type: 2}
  - m_RefCount: 1
    m_Data: {fileID: 11400000, guid: 15f6490ca14be4c2f854e6ffa376dd0b, type: 2}
  - m_RefCount: 1
    m_Data: {fileID: 11400000, guid: af651d7a586f54898b4ce82af575b876, type: 2}
  - m_RefCount: 6
    m_Data: {fileID: 11400000, guid: e8653f363bb8e441fad0071b5745352e, type: 2}
  - m_RefCount: 1
    m_Data: {fileID: 11400000, guid: 05884919d798041b5a1bce2b6083c169, type: 2}
  - m_RefCount: 6
    m_Data: {fileID: 11400000, guid: dadce5437a01e475ea8bb9bf717004f6, type: 2}
  m_TileSpriteArray:
  - m_RefCount: 0
    m_Data: {fileID: 0}
  - m_RefCount: 0
    m_Data: {fileID: 0}
  - m_RefCount: 0
    m_Data: {fileID: 0}
  - m_RefCount: 0
    m_Data: {fileID: 0}
  - m_RefCount: 0
    m_Data: {fileID: 0}
  - m_RefCount: 0
    m_Data: {fileID: 0}
  - m_RefCount: 0
    m_Data: {fileID: 0}
  - m_RefCount: 0
    m_Data: {fileID: 0}
  - m_RefCount: 0
    m_Data: {fileID: 0}
  - m_RefCount: 14
    m_Data: {fileID: 21300000, guid: 14dae510c07394098a7ec69dafaff022, type: 3}
  - m_RefCount: 0
    m_Data: {fileID: 0}
  - m_RefCount: 5
    m_Data: {fileID: 21300000, guid: 55df3f1f5a230e140aee5c83a2dd21ed, type: 3}
  - m_RefCount: 4
    m_Data: {fileID: 21300000, guid: 8a61f201b49bc7549b315ad03d2201c5, type: 3}
  - m_RefCount: 8
    m_Data: {fileID: 21300000, guid: 9efc532c85bae424790eaf00af4e4bc2, type: 3}
  - m_RefCount: 2
    m_Data: {fileID: 21300000, guid: 066c3ae8e6a7c5542b8fa325df01e8f9, type: 3}
  - m_RefCount: 1
    m_Data: {fileID: 21300000, guid: 5dc337a3c5b05431aa7d15389fe38dcb, type: 3}
  - m_RefCount: 1
    m_Data: {fileID: 21300000, guid: 8a4f452fb31bc44a49cf799a02616e8e, type: 3}
  - m_RefCount: 1
    m_Data: {fileID: 21300000, guid: 92edbaa19013549a995b817f1043981e, type: 3}
  - m_RefCount: 6
    m_Data: {fileID: 21300000, guid: 3bea3e33984f94fe8b7d62a73a9e51c0, type: 3}
  - m_RefCount: 1
    m_Data: {fileID: 21300000, guid: d6b6962e37ad543f7a43e7f58e950870, type: 3}
  - m_RefCount: 6
    m_Data: {fileID: 21300000, guid: 8c97dcab3e1e84a5bb74d9728f49a74a, type: 3}
  m_TileMatrixArray:
  - m_RefCount: 49
    m_Data:
      e00: 1
      e01: 0
      e02: 0
      e03: 0
      e10: 0
      e11: 1
      e12: 0
      e13: 0
      e20: 0
      e21: 0
      e22: 1
      e23: 0
      e30: 0
      e31: 0
      e32: 0
      e33: 1
  - m_RefCount: 0
    m_Data:
      e00: -1
      e01: 0
      e02: 0
      e03: 0
      e10: -0
      e11: 1
      e12: 0
      e13: 0
      e20: -0
      e21: 0
      e22: 1
      e23: 0
      e30: 0
      e31: 0
      e32: 0
      e33: 1
  m_TileColorArray:
  - m_RefCount: 49
    m_Data: {r: 1, g: 1, b: 1, a: 1}
  - m_RefCount: 0
    m_Data: {r: 0.9746355, g: 0.6745354, b: 0.75677204, a: 1}
  - m_RefCount: 0
    m_Data: {r: 0.9231212, g: 0.50901353, b: 0.5484899, a: 1}
  - m_RefCount: 0
    m_Data: {r: 0.97391224, g: 0.51874226, b: 0.64400023, a: 1}
  m_TileObjectToInstantiateArray:
  - m_RefCount: 0
    m_Data: {fileID: 0}
  - m_RefCount: 0
    m_Data: {fileID: 0}
  - m_RefCount: 0
    m_Data: {fileID: 0}
  - m_RefCount: 0
    m_Data: {fileID: 0}
  - m_RefCount: 0
    m_Data: {fileID: 0}
  - m_RefCount: 0
    m_Data: {fileID: 0}
  - m_RefCount: 0
    m_Data: {fileID: 0}
  - m_RefCount: 0
    m_Data: {fileID: 0}
  - m_RefCount: 0
    m_Data: {fileID: 0}
  - m_RefCount: 0
    m_Data: {fileID: 0}
  - m_RefCount: 0
    m_Data: {fileID: 0}
  m_AnimationFrameRate: 1
  m_Color: {r: 1, g: 1, b: 1, a: 1}
  m_Origin: {x: -3, y: -2, z: 0}
  m_Size: {x: 17, y: 16, z: 1}
  m_TileAnchor: {x: 0.5, y: 0.5, z: 0}
  m_TileOrientation: 0
  m_TileOrientationMatrix:
    e00: 1
    e01: 0
    e02: 0
    e03: 0
    e10: 0
    e11: 1
    e12: 0
    e13: 0
    e20: 0
    e21: 0
    e22: 1
    e23: 0
    e30: 0
    e31: 0
    e32: 0
    e33: 1
--- !u!483693784 &1549085615476228741
TilemapRenderer:
  m_ObjectHideFlags: 0
  m_CorrespondingSourceObject: {fileID: 0}
  m_PrefabInstance: {fileID: 0}
  m_PrefabAsset: {fileID: 0}
  m_GameObject: {fileID: 5635710976906029957}
  m_Enabled: 1
  m_CastShadows: 0
  m_ReceiveShadows: 0
  m_DynamicOccludee: 1
  m_MotionVectors: 1
  m_LightProbeUsage: 0
  m_ReflectionProbeUsage: 0
  m_RayTracingMode: 0
  m_RayTraceProcedural: 0
  m_RenderingLayerMask: 1
  m_RendererPriority: 0
  m_Materials:
  - {fileID: 10754, guid: 0000000000000000f000000000000000, type: 0}
  m_StaticBatchInfo:
    firstSubMesh: 0
    subMeshCount: 0
  m_StaticBatchRoot: {fileID: 0}
  m_ProbeAnchor: {fileID: 0}
  m_LightProbeVolumeOverride: {fileID: 0}
  m_ScaleInLightmap: 1
  m_ReceiveGI: 1
  m_PreserveUVs: 0
  m_IgnoreNormalsForChartDetection: 0
  m_ImportantGI: 0
  m_StitchLightmapSeams: 1
  m_SelectedEditorRenderState: 0
  m_MinimumChartSize: 4
  m_AutoUVMaxDistance: 0.5
  m_AutoUVMaxAngle: 89
  m_LightmapParameters: {fileID: 0}
  m_SortingLayerID: 1626406207
  m_SortingLayer: 1
  m_SortingOrder: 0
  m_ChunkSize: {x: 32, y: 32, z: 32}
  m_ChunkCullingBounds: {x: 0, y: 0.4225, z: 0}
  m_MaxChunkCount: 16
  m_MaxFrameAge: 16
  m_SortOrder: 3
  m_Mode: 1
  m_DetectChunkCullingBounds: 0
  m_MaskInteraction: 0
--- !u!1 &6209406542355469461
GameObject:
  m_ObjectHideFlags: 0
  m_CorrespondingSourceObject: {fileID: 0}
  m_PrefabInstance: {fileID: 0}
  m_PrefabAsset: {fileID: 0}
  serializedVersion: 6
  m_Component:
  - component: {fileID: 2919312539255280364}
  - component: {fileID: 4453685198502240519}
  - component: {fileID: 6146929405123399438}
  - component: {fileID: 2496536038391957077}
  m_Layer: 0
  m_Name: Car Tilemap
  m_TagString: Untagged
  m_Icon: {fileID: 0}
  m_NavMeshLayer: 0
  m_StaticEditorFlags: 0
  m_IsActive: 1
--- !u!4 &2919312539255280364
Transform:
  m_ObjectHideFlags: 0
  m_CorrespondingSourceObject: {fileID: 0}
  m_PrefabInstance: {fileID: 0}
  m_PrefabAsset: {fileID: 0}
  m_GameObject: {fileID: 6209406542355469461}
  m_LocalRotation: {x: -0, y: -0, z: -0, w: 1}
  m_LocalPosition: {x: 0, y: 0, z: 0}
  m_LocalScale: {x: 1, y: 1, z: 1}
  m_Children: []
  m_Father: {fileID: 583625592097664823}
  m_RootOrder: 1
  m_LocalEulerAnglesHint: {x: 0, y: 0, z: 0}
--- !u!1839735485 &4453685198502240519
Tilemap:
  m_ObjectHideFlags: 0
  m_CorrespondingSourceObject: {fileID: 0}
  m_PrefabInstance: {fileID: 0}
  m_PrefabAsset: {fileID: 0}
  m_GameObject: {fileID: 6209406542355469461}
  m_Enabled: 1
  m_Tiles:
  - first: {x: 1, y: 1, z: 0}
    second:
      serializedVersion: 2
      m_TileIndex: 9
      m_TileSpriteIndex: 9
      m_TileMatrixIndex: 0
      m_TileColorIndex: 0
      m_TileObjectToInstantiateIndex: 65535
      dummyAlignment: 0
      m_AllTileFlags: 1073741829
  - first: {x: 1, y: 5, z: 0}
    second:
      serializedVersion: 2
      m_TileIndex: 8
      m_TileSpriteIndex: 8
      m_TileMatrixIndex: 0
      m_TileColorIndex: 0
      m_TileObjectToInstantiateIndex: 65535
      dummyAlignment: 0
      m_AllTileFlags: 1073741829
  m_AnimatedTiles: {}
  m_TileAssetArray:
  - m_RefCount: 0
    m_Data: {fileID: 0}
  - m_RefCount: 0
    m_Data: {fileID: 0}
  - m_RefCount: 0
    m_Data: {fileID: 0}
  - m_RefCount: 0
    m_Data: {fileID: 0}
  - m_RefCount: 0
    m_Data: {fileID: 0}
  - m_RefCount: 0
    m_Data: {fileID: 0}
  - m_RefCount: 0
    m_Data: {fileID: 0}
  - m_RefCount: 0
    m_Data: {fileID: 0}
  - m_RefCount: 1
    m_Data: {fileID: 11400000, guid: f32fe233292094800aea21cc85a98450, type: 2}
  - m_RefCount: 1
    m_Data: {fileID: 11400000, guid: 93a8ddeaaa57f40ccb4e735ab0917ddd, type: 2}
  m_TileSpriteArray:
  - m_RefCount: 0
    m_Data: {fileID: 0}
  - m_RefCount: 0
    m_Data: {fileID: 0}
  - m_RefCount: 0
    m_Data: {fileID: 0}
  - m_RefCount: 0
    m_Data: {fileID: 0}
  - m_RefCount: 0
    m_Data: {fileID: 0}
  - m_RefCount: 0
    m_Data: {fileID: 0}
  - m_RefCount: 0
    m_Data: {fileID: 0}
  - m_RefCount: 0
    m_Data: {fileID: 0}
  - m_RefCount: 1
    m_Data: {fileID: 21300000, guid: 854fd559b4bbe4701b2e334fdee34141, type: 3}
  - m_RefCount: 1
    m_Data: {fileID: 21300000, guid: 0cb203f06cf84485bba9e7e392deac92, type: 3}
  m_TileMatrixArray:
  - m_RefCount: 2
    m_Data:
      e00: 1
      e01: 0
      e02: 0
      e03: 0
      e10: 0
      e11: 1
      e12: 0
      e13: 0
      e20: 0
      e21: 0
      e22: 1
      e23: 0
      e30: 0
      e31: 0
      e32: 0
      e33: 1
  - m_RefCount: 0
    m_Data:
      e00: -1
      e01: 0
      e02: 0
      e03: 0
      e10: -0
      e11: 1
      e12: 0
      e13: 0
      e20: -0
      e21: 0
      e22: 1
      e23: 0
      e30: 0
      e31: 0
      e32: 0
      e33: 1
  m_TileColorArray:
  - m_RefCount: 2
    m_Data: {r: 1, g: 1, b: 1, a: 1}
  m_TileObjectToInstantiateArray:
  - m_RefCount: 0
    m_Data: {fileID: 0}
  - m_RefCount: 0
    m_Data: {fileID: 0}
  m_AnimationFrameRate: 1
  m_Color: {r: 1, g: 1, b: 1, a: 1}
  m_Origin: {x: -7, y: -4, z: 0}
  m_Size: {x: 33, y: 30, z: 1}
  m_TileAnchor: {x: 0.5, y: 0.5, z: 0}
  m_TileOrientation: 0
  m_TileOrientationMatrix:
    e00: 1
    e01: 0
    e02: 0
    e03: 0
    e10: 0
    e11: 1
    e12: 0
    e13: 0
    e20: 0
    e21: 0
    e22: 1
    e23: 0
    e30: 0
    e31: 0
    e32: 0
    e33: 1
--- !u!483693784 &6146929405123399438
TilemapRenderer:
  m_ObjectHideFlags: 0
  m_CorrespondingSourceObject: {fileID: 0}
  m_PrefabInstance: {fileID: 0}
  m_PrefabAsset: {fileID: 0}
  m_GameObject: {fileID: 6209406542355469461}
  m_Enabled: 1
  m_CastShadows: 0
  m_ReceiveShadows: 0
  m_DynamicOccludee: 1
  m_MotionVectors: 1
  m_LightProbeUsage: 0
  m_ReflectionProbeUsage: 0
  m_RayTracingMode: 0
  m_RayTraceProcedural: 0
  m_RenderingLayerMask: 1
  m_RendererPriority: 0
  m_Materials:
  - {fileID: 10754, guid: 0000000000000000f000000000000000, type: 0}
  m_StaticBatchInfo:
    firstSubMesh: 0
    subMeshCount: 0
  m_StaticBatchRoot: {fileID: 0}
  m_ProbeAnchor: {fileID: 0}
  m_LightProbeVolumeOverride: {fileID: 0}
  m_ScaleInLightmap: 1
  m_ReceiveGI: 1
  m_PreserveUVs: 0
  m_IgnoreNormalsForChartDetection: 0
  m_ImportantGI: 0
  m_StitchLightmapSeams: 1
  m_SelectedEditorRenderState: 0
  m_MinimumChartSize: 4
  m_AutoUVMaxDistance: 0.5
  m_AutoUVMaxAngle: 89
  m_LightmapParameters: {fileID: 0}
  m_SortingLayerID: 1401492991
  m_SortingLayer: 3
  m_SortingOrder: 0
  m_ChunkSize: {x: 32, y: 32, z: 32}
  m_ChunkCullingBounds: {x: 0, y: 0.4225, z: 0}
  m_MaxChunkCount: 16
  m_MaxFrameAge: 16
  m_SortOrder: 3
  m_Mode: 1
  m_DetectChunkCullingBounds: 0
  m_MaskInteraction: 0
--- !u!114 &2496536038391957077
MonoBehaviour:
  m_ObjectHideFlags: 0
  m_CorrespondingSourceObject: {fileID: 0}
  m_PrefabInstance: {fileID: 0}
  m_PrefabAsset: {fileID: 0}
  m_GameObject: {fileID: 6209406542355469461}
  m_Enabled: 1
  m_EditorHideFlags: 0
  m_Script: {fileID: 11500000, guid: ada9e2c95cf764145b034e430d6cb893, type: 3}
  m_Name: 
  m_EditorClassIdentifier: 
--- !u!1 &6873658508952189877
GameObject:
  m_ObjectHideFlags: 0
  m_CorrespondingSourceObject: {fileID: 0}
  m_PrefabInstance: {fileID: 0}
  m_PrefabAsset: {fileID: 0}
  serializedVersion: 6
  m_Component:
  - component: {fileID: 583625592097664823}
  - component: {fileID: 4344653415320779116}
  m_Layer: 0
  m_Name: Grid
  m_TagString: Untagged
  m_Icon: {fileID: 0}
  m_NavMeshLayer: 0
  m_StaticEditorFlags: 0
  m_IsActive: 1
--- !u!4 &583625592097664823
Transform:
  m_ObjectHideFlags: 0
  m_CorrespondingSourceObject: {fileID: 0}
  m_PrefabInstance: {fileID: 0}
  m_PrefabAsset: {fileID: 0}
  m_GameObject: {fileID: 6873658508952189877}
  m_LocalRotation: {x: -0, y: -0, z: -0, w: 1}
  m_LocalPosition: {x: 0, y: 0, z: 0}
  m_LocalScale: {x: 1, y: 1, z: 1}
  m_Children:
  - {fileID: 3667713708003776879}
  - {fileID: 2919312539255280364}
  - {fileID: 3804876629294745166}
  - {fileID: 8937660336433234560}
  m_Father: {fileID: 3971192675114533681}
  m_RootOrder: 0
  m_LocalEulerAnglesHint: {x: 0, y: 0, z: 0}
--- !u!156049354 &4344653415320779116
Grid:
  m_ObjectHideFlags: 0
  m_CorrespondingSourceObject: {fileID: 0}
  m_PrefabInstance: {fileID: 0}
  m_PrefabAsset: {fileID: 0}
  m_GameObject: {fileID: 6873658508952189877}
  m_Enabled: 1
  m_CellSize: {x: 1, y: 0.577, z: 1}
  m_CellGap: {x: 0, y: 0, z: 0}
  m_CellLayout: 2
  m_CellSwizzle: 0
--- !u!1 &7464755854493536117
GameObject:
  m_ObjectHideFlags: 0
  m_CorrespondingSourceObject: {fileID: 0}
  m_PrefabInstance: {fileID: 0}
  m_PrefabAsset: {fileID: 0}
  serializedVersion: 6
  m_Component:
  - component: {fileID: 3804876629294745166}
  - component: {fileID: 4137965087502106733}
  - component: {fileID: 7243319054377743461}
  m_Layer: 0
  m_Name: Building Tilemap
  m_TagString: Untagged
  m_Icon: {fileID: 0}
  m_NavMeshLayer: 0
  m_StaticEditorFlags: 0
  m_IsActive: 1
--- !u!4 &3804876629294745166
Transform:
  m_ObjectHideFlags: 0
  m_CorrespondingSourceObject: {fileID: 0}
  m_PrefabInstance: {fileID: 0}
  m_PrefabAsset: {fileID: 0}
  m_GameObject: {fileID: 7464755854493536117}
  m_LocalRotation: {x: -0, y: -0, z: -0, w: 1}
  m_LocalPosition: {x: 0, y: 0, z: 0}
  m_LocalScale: {x: 1, y: 1, z: 1}
  m_Children: []
  m_Father: {fileID: 583625592097664823}
  m_RootOrder: 2
  m_LocalEulerAnglesHint: {x: 0, y: 0, z: 0}
--- !u!1839735485 &4137965087502106733
Tilemap:
  m_ObjectHideFlags: 0
  m_CorrespondingSourceObject: {fileID: 0}
  m_PrefabInstance: {fileID: 0}
  m_PrefabAsset: {fileID: 0}
  m_GameObject: {fileID: 7464755854493536117}
  m_Enabled: 1
  m_Tiles:
  - first: {x: 4, y: 0, z: 0}
    second:
      serializedVersion: 2
      m_TileIndex: 6
      m_TileSpriteIndex: 8
      m_TileMatrixIndex: 1
      m_TileColorIndex: 0
      m_TileObjectToInstantiateIndex: 65535
      dummyAlignment: 0
      m_AllTileFlags: 1073741825
  - first: {x: 6, y: 2, z: 0}
    second:
      serializedVersion: 2
      m_TileIndex: 9
      m_TileSpriteIndex: 7
      m_TileMatrixIndex: 1
      m_TileColorIndex: 0
      m_TileObjectToInstantiateIndex: 65535
      dummyAlignment: 0
      m_AllTileFlags: 1073741825
  - first: {x: 6, y: 3, z: 0}
    second:
      serializedVersion: 2
      m_TileIndex: 9
      m_TileSpriteIndex: 7
      m_TileMatrixIndex: 1
      m_TileColorIndex: 0
      m_TileObjectToInstantiateIndex: 65535
      dummyAlignment: 0
      m_AllTileFlags: 1073741825
  - first: {x: 6, y: 4, z: 0}
    second:
      serializedVersion: 2
      m_TileIndex: 5
      m_TileSpriteIndex: 5
      m_TileMatrixIndex: 1
      m_TileColorIndex: 0
      m_TileObjectToInstantiateIndex: 65535
      dummyAlignment: 0
      m_AllTileFlags: 1073741825
  - first: {x: 6, y: 5, z: 0}
    second:
      serializedVersion: 2
      m_TileIndex: 5
      m_TileSpriteIndex: 5
      m_TileMatrixIndex: 1
      m_TileColorIndex: 0
      m_TileObjectToInstantiateIndex: 65535
      dummyAlignment: 0
      m_AllTileFlags: 1073741825
  - first: {x: 1, y: 6, z: 0}
    second:
      serializedVersion: 2
      m_TileIndex: 4
      m_TileSpriteIndex: 9
      m_TileMatrixIndex: 0
      m_TileColorIndex: 0
      m_TileObjectToInstantiateIndex: 65535
      dummyAlignment: 0
      m_AllTileFlags: 1073741825
  - first: {x: 2, y: 6, z: 0}
    second:
      serializedVersion: 2
      m_TileIndex: 9
      m_TileSpriteIndex: 7
      m_TileMatrixIndex: 0
      m_TileColorIndex: 0
      m_TileObjectToInstantiateIndex: 65535
      dummyAlignment: 0
      m_AllTileFlags: 1073741825
  - first: {x: 3, y: 6, z: 0}
    second:
      serializedVersion: 2
      m_TileIndex: 9
      m_TileSpriteIndex: 7
      m_TileMatrixIndex: 0
      m_TileColorIndex: 0
      m_TileObjectToInstantiateIndex: 65535
      dummyAlignment: 0
      m_AllTileFlags: 1073741825
  - first: {x: 4, y: 6, z: 0}
    second:
      serializedVersion: 2
      m_TileIndex: 7
      m_TileSpriteIndex: 6
      m_TileMatrixIndex: 0
      m_TileColorIndex: 0
      m_TileObjectToInstantiateIndex: 65535
      dummyAlignment: 0
      m_AllTileFlags: 1073741825
  - first: {x: 5, y: 6, z: 0}
    second:
      serializedVersion: 2
      m_TileIndex: 9
      m_TileSpriteIndex: 7
      m_TileMatrixIndex: 0
      m_TileColorIndex: 0
      m_TileObjectToInstantiateIndex: 65535
      dummyAlignment: 0
      m_AllTileFlags: 1073741825
  - first: {x: 6, y: 6, z: 0}
    second:
      serializedVersion: 2
      m_TileIndex: 5
      m_TileSpriteIndex: 5
      m_TileMatrixIndex: 1
      m_TileColorIndex: 0
      m_TileObjectToInstantiateIndex: 65535
      dummyAlignment: 0
      m_AllTileFlags: 1073741825
  m_AnimatedTiles: {}
  m_TileAssetArray:
  - m_RefCount: 0
    m_Data: {fileID: 0}
  - m_RefCount: 0
    m_Data: {fileID: 0}
  - m_RefCount: 0
    m_Data: {fileID: 0}
  - m_RefCount: 0
    m_Data: {fileID: 0}
  - m_RefCount: 1
    m_Data: {fileID: 11400000, guid: 467616bc2c88648cf9357cce674759c7, type: 2}
  - m_RefCount: 3
    m_Data: {fileID: 11400000, guid: f9355d896e08d4bfbb1ad60c03eca772, type: 2}
  - m_RefCount: 1
    m_Data: {fileID: 11400000, guid: d502d4cda64bf4bd3bca916795852d72, type: 2}
  - m_RefCount: 1
    m_Data: {fileID: 11400000, guid: 183e2705be98a48f8b795f19ea82cf69, type: 2}
  - m_RefCount: 0
    m_Data: {fileID: 0}
  - m_RefCount: 5
    m_Data: {fileID: 11400000, guid: 08f0aa66fff3440c3ab595ad9fbfff7a, type: 2}
  m_TileSpriteArray:
  - m_RefCount: 0
    m_Data: {fileID: 0}
  - m_RefCount: 0
    m_Data: {fileID: 0}
  - m_RefCount: 0
    m_Data: {fileID: 0}
  - m_RefCount: 0
    m_Data: {fileID: 0}
  - m_RefCount: 0
    m_Data: {fileID: 0}
  - m_RefCount: 3
    m_Data: {fileID: 21300000, guid: 245d93e545fab4741b42030e2eff736e, type: 3}
  - m_RefCount: 1
    m_Data: {fileID: 21300000, guid: ccbbc4d0cb965460f8523d9d9df99cb0, type: 3}
  - m_RefCount: 5
    m_Data: {fileID: 21300000, guid: a21e2ab1b656145fab77f8a400187d07, type: 3}
  - m_RefCount: 1
    m_Data: {fileID: 21300000, guid: e7e0a020a9779494b81fb20d9a4a55ea, type: 3}
  - m_RefCount: 1
    m_Data: {fileID: 21300000, guid: fd2adc0fe947246248b92c656db6c3f2, type: 3}
  m_TileMatrixArray:
  - m_RefCount: 5
    m_Data:
      e00: 1
      e01: 0
      e02: 0
      e03: 0
      e10: 0
      e11: 1
      e12: 0
      e13: 0
      e20: 0
      e21: 0
      e22: 1
      e23: 0
      e30: 0
      e31: 0
      e32: 0
      e33: 1
  - m_RefCount: 6
    m_Data:
      e00: -1
      e01: 0
      e02: 0
      e03: 0
      e10: -0
      e11: 1
      e12: 0
      e13: 0
      e20: -0
      e21: 0
      e22: 1
      e23: 0
      e30: 0
      e31: 0
      e32: 0
      e33: 1
  m_TileColorArray:
  - m_RefCount: 11
    m_Data: {r: 1, g: 1, b: 1, a: 1}
  m_TileObjectToInstantiateArray: []
  m_AnimationFrameRate: 1
  m_Color: {r: 1, g: 1, b: 1, a: 1}
  m_Origin: {x: -3, y: -2, z: 0}
  m_Size: {x: 17, y: 16, z: 1}
  m_TileAnchor: {x: 0.5, y: 0.5, z: 0}
  m_TileOrientation: 0
  m_TileOrientationMatrix:
    e00: 1
    e01: 0
    e02: 0
    e03: 0
    e10: 0
    e11: 1
    e12: 0
    e13: 0
    e20: 0
    e21: 0
    e22: 1
    e23: 0
    e30: 0
    e31: 0
    e32: 0
    e33: 1
--- !u!483693784 &7243319054377743461
TilemapRenderer:
  m_ObjectHideFlags: 0
  m_CorrespondingSourceObject: {fileID: 0}
  m_PrefabInstance: {fileID: 0}
  m_PrefabAsset: {fileID: 0}
  m_GameObject: {fileID: 7464755854493536117}
  m_Enabled: 1
  m_CastShadows: 0
  m_ReceiveShadows: 0
  m_DynamicOccludee: 1
  m_MotionVectors: 1
  m_LightProbeUsage: 0
  m_ReflectionProbeUsage: 0
  m_RayTracingMode: 0
  m_RayTraceProcedural: 0
  m_RenderingLayerMask: 1
  m_RendererPriority: 0
  m_Materials:
  - {fileID: 10754, guid: 0000000000000000f000000000000000, type: 0}
  m_StaticBatchInfo:
    firstSubMesh: 0
    subMeshCount: 0
  m_StaticBatchRoot: {fileID: 0}
  m_ProbeAnchor: {fileID: 0}
  m_LightProbeVolumeOverride: {fileID: 0}
  m_ScaleInLightmap: 1
  m_ReceiveGI: 1
  m_PreserveUVs: 0
  m_IgnoreNormalsForChartDetection: 0
  m_ImportantGI: 0
  m_StitchLightmapSeams: 1
  m_SelectedEditorRenderState: 0
  m_MinimumChartSize: 4
  m_AutoUVMaxDistance: 0.5
  m_AutoUVMaxAngle: 89
  m_LightmapParameters: {fileID: 0}
  m_SortingLayerID: 1401492991
  m_SortingLayer: 3
  m_SortingOrder: 0
  m_ChunkSize: {x: 32, y: 32, z: 32}
  m_ChunkCullingBounds: {x: 0, y: 0.4225, z: 0}
  m_MaxChunkCount: 16
  m_MaxFrameAge: 16
  m_SortOrder: 3
  m_Mode: 1
  m_DetectChunkCullingBounds: 0
  m_MaskInteraction: 0
--- !u!1 &9212181532299134158
GameObject:
  m_ObjectHideFlags: 0
  m_CorrespondingSourceObject: {fileID: 0}
  m_PrefabInstance: {fileID: 0}
  m_PrefabAsset: {fileID: 0}
  serializedVersion: 6
  m_Component:
  - component: {fileID: 8188234822464681067}
  m_Layer: 0
  m_Name: Decoration
  m_TagString: Untagged
  m_Icon: {fileID: 0}
  m_NavMeshLayer: 0
  m_StaticEditorFlags: 0
  m_IsActive: 1
--- !u!4 &8188234822464681067
Transform:
  m_ObjectHideFlags: 0
  m_CorrespondingSourceObject: {fileID: 0}
  m_PrefabInstance: {fileID: 0}
  m_PrefabAsset: {fileID: 0}
  m_GameObject: {fileID: 9212181532299134158}
  m_LocalRotation: {x: -0, y: -0, z: -0, w: 1}
  m_LocalPosition: {x: 0.067466766, y: 0.685177, z: -0.15607253}
  m_LocalScale: {x: 1, y: 1, z: 1}
  m_Children: []
  m_Father: {fileID: 3971192675114533681}
  m_RootOrder: 1
  m_LocalEulerAnglesHint: {x: 0, y: 0, z: 0}
--- !u!1001 &867268160345910956
PrefabInstance:
  m_ObjectHideFlags: 0
  serializedVersion: 2
  m_Modification:
    m_TransformParent: {fileID: 3971192675114533681}
    m_Modifications:
    - target: {fileID: 6701739516973774265, guid: 778c519a3a63d40639ac5cf5deb5d021, type: 3}
      propertyPath: m_RootOrder
      value: 10
      objectReference: {fileID: 0}
    - target: {fileID: 6701739516973774265, guid: 778c519a3a63d40639ac5cf5deb5d021, type: 3}
      propertyPath: m_LocalPosition.x
      value: -1.2238677
      objectReference: {fileID: 0}
    - target: {fileID: 6701739516973774265, guid: 778c519a3a63d40639ac5cf5deb5d021, type: 3}
      propertyPath: m_LocalPosition.y
      value: 1.8141916
      objectReference: {fileID: 0}
    - target: {fileID: 6701739516973774265, guid: 778c519a3a63d40639ac5cf5deb5d021, type: 3}
      propertyPath: m_LocalPosition.z
      value: 0
      objectReference: {fileID: 0}
    - target: {fileID: 6701739516973774265, guid: 778c519a3a63d40639ac5cf5deb5d021, type: 3}
      propertyPath: m_LocalRotation.w
      value: 1
      objectReference: {fileID: 0}
    - target: {fileID: 6701739516973774265, guid: 778c519a3a63d40639ac5cf5deb5d021, type: 3}
      propertyPath: m_LocalRotation.x
      value: -0
      objectReference: {fileID: 0}
    - target: {fileID: 6701739516973774265, guid: 778c519a3a63d40639ac5cf5deb5d021, type: 3}
      propertyPath: m_LocalRotation.y
      value: -0
      objectReference: {fileID: 0}
    - target: {fileID: 6701739516973774265, guid: 778c519a3a63d40639ac5cf5deb5d021, type: 3}
      propertyPath: m_LocalRotation.z
      value: -0
      objectReference: {fileID: 0}
    - target: {fileID: 6701739516973774265, guid: 778c519a3a63d40639ac5cf5deb5d021, type: 3}
      propertyPath: m_LocalEulerAnglesHint.x
      value: 0
      objectReference: {fileID: 0}
    - target: {fileID: 6701739516973774265, guid: 778c519a3a63d40639ac5cf5deb5d021, type: 3}
      propertyPath: m_LocalEulerAnglesHint.y
      value: 0
      objectReference: {fileID: 0}
    - target: {fileID: 6701739516973774265, guid: 778c519a3a63d40639ac5cf5deb5d021, type: 3}
      propertyPath: m_LocalEulerAnglesHint.z
      value: 0
      objectReference: {fileID: 0}
    - target: {fileID: 7197876584053036006, guid: 778c519a3a63d40639ac5cf5deb5d021, type: 3}
      propertyPath: m_Name
      value: Bench
      objectReference: {fileID: 0}
    m_RemovedComponents: []
  m_SourcePrefab: {fileID: 100100000, guid: 778c519a3a63d40639ac5cf5deb5d021, type: 3}
--- !u!4 &5839052563362077461 stripped
Transform:
  m_CorrespondingSourceObject: {fileID: 6701739516973774265, guid: 778c519a3a63d40639ac5cf5deb5d021, type: 3}
  m_PrefabInstance: {fileID: 867268160345910956}
  m_PrefabAsset: {fileID: 0}
--- !u!1001 &1305927342784242514
PrefabInstance:
  m_ObjectHideFlags: 0
  serializedVersion: 2
  m_Modification:
    m_TransformParent: {fileID: 3971192675114533681}
    m_Modifications:
    - target: {fileID: 6594736658096049474, guid: 3e10983313a664528bf6ffd3421ff8c1, type: 3}
      propertyPath: m_RootOrder
      value: 18
      objectReference: {fileID: 0}
    - target: {fileID: 6594736658096049474, guid: 3e10983313a664528bf6ffd3421ff8c1, type: 3}
      propertyPath: m_LocalPosition.x
      value: -0.37997228
      objectReference: {fileID: 0}
    - target: {fileID: 6594736658096049474, guid: 3e10983313a664528bf6ffd3421ff8c1, type: 3}
      propertyPath: m_LocalPosition.y
      value: 3.2354894
      objectReference: {fileID: 0}
    - target: {fileID: 6594736658096049474, guid: 3e10983313a664528bf6ffd3421ff8c1, type: 3}
      propertyPath: m_LocalPosition.z
      value: 0
      objectReference: {fileID: 0}
    - target: {fileID: 6594736658096049474, guid: 3e10983313a664528bf6ffd3421ff8c1, type: 3}
      propertyPath: m_LocalRotation.w
      value: 1
      objectReference: {fileID: 0}
    - target: {fileID: 6594736658096049474, guid: 3e10983313a664528bf6ffd3421ff8c1, type: 3}
      propertyPath: m_LocalRotation.x
      value: -0
      objectReference: {fileID: 0}
    - target: {fileID: 6594736658096049474, guid: 3e10983313a664528bf6ffd3421ff8c1, type: 3}
      propertyPath: m_LocalRotation.y
      value: -0
      objectReference: {fileID: 0}
    - target: {fileID: 6594736658096049474, guid: 3e10983313a664528bf6ffd3421ff8c1, type: 3}
      propertyPath: m_LocalRotation.z
      value: -0
      objectReference: {fileID: 0}
    - target: {fileID: 6594736658096049474, guid: 3e10983313a664528bf6ffd3421ff8c1, type: 3}
      propertyPath: m_LocalEulerAnglesHint.x
      value: 0
      objectReference: {fileID: 0}
    - target: {fileID: 6594736658096049474, guid: 3e10983313a664528bf6ffd3421ff8c1, type: 3}
      propertyPath: m_LocalEulerAnglesHint.y
      value: 0
      objectReference: {fileID: 0}
    - target: {fileID: 6594736658096049474, guid: 3e10983313a664528bf6ffd3421ff8c1, type: 3}
      propertyPath: m_LocalEulerAnglesHint.z
      value: 0
      objectReference: {fileID: 0}
    - target: {fileID: 8854158604967348169, guid: 3e10983313a664528bf6ffd3421ff8c1, type: 3}
      propertyPath: m_Name
      value: LampN (2)
      objectReference: {fileID: 0}
    m_RemovedComponents: []
  m_SourcePrefab: {fileID: 100100000, guid: 3e10983313a664528bf6ffd3421ff8c1, type: 3}
--- !u!4 &5303731775725383184 stripped
Transform:
  m_CorrespondingSourceObject: {fileID: 6594736658096049474, guid: 3e10983313a664528bf6ffd3421ff8c1, type: 3}
  m_PrefabInstance: {fileID: 1305927342784242514}
  m_PrefabAsset: {fileID: 0}
--- !u!1001 &1837304589291632619
PrefabInstance:
  m_ObjectHideFlags: 0
  serializedVersion: 2
  m_Modification:
    m_TransformParent: {fileID: 3971192675114533681}
    m_Modifications:
    - target: {fileID: 490330204513944614, guid: d83ae81b771a4452fbc13cf524c34f33, type: 3}
      propertyPath: m_Name
      value: LampE (2)
      objectReference: {fileID: 0}
    - target: {fileID: 4644592167191524999, guid: d83ae81b771a4452fbc13cf524c34f33, type: 3}
      propertyPath: m_RootOrder
      value: 15
      objectReference: {fileID: 0}
    - target: {fileID: 4644592167191524999, guid: d83ae81b771a4452fbc13cf524c34f33, type: 3}
      propertyPath: m_LocalPosition.x
      value: 1.9888573
      objectReference: {fileID: 0}
    - target: {fileID: 4644592167191524999, guid: d83ae81b771a4452fbc13cf524c34f33, type: 3}
      propertyPath: m_LocalPosition.y
      value: 1.7401656
      objectReference: {fileID: 0}
    - target: {fileID: 4644592167191524999, guid: d83ae81b771a4452fbc13cf524c34f33, type: 3}
      propertyPath: m_LocalPosition.z
      value: 0
      objectReference: {fileID: 0}
    - target: {fileID: 4644592167191524999, guid: d83ae81b771a4452fbc13cf524c34f33, type: 3}
      propertyPath: m_LocalRotation.w
      value: 1
      objectReference: {fileID: 0}
    - target: {fileID: 4644592167191524999, guid: d83ae81b771a4452fbc13cf524c34f33, type: 3}
      propertyPath: m_LocalRotation.x
      value: -0
      objectReference: {fileID: 0}
    - target: {fileID: 4644592167191524999, guid: d83ae81b771a4452fbc13cf524c34f33, type: 3}
      propertyPath: m_LocalRotation.y
      value: -0
      objectReference: {fileID: 0}
    - target: {fileID: 4644592167191524999, guid: d83ae81b771a4452fbc13cf524c34f33, type: 3}
      propertyPath: m_LocalRotation.z
      value: -0
      objectReference: {fileID: 0}
    - target: {fileID: 4644592167191524999, guid: d83ae81b771a4452fbc13cf524c34f33, type: 3}
      propertyPath: m_LocalEulerAnglesHint.x
      value: 0
      objectReference: {fileID: 0}
    - target: {fileID: 4644592167191524999, guid: d83ae81b771a4452fbc13cf524c34f33, type: 3}
      propertyPath: m_LocalEulerAnglesHint.y
      value: 0
      objectReference: {fileID: 0}
    - target: {fileID: 4644592167191524999, guid: d83ae81b771a4452fbc13cf524c34f33, type: 3}
      propertyPath: m_LocalEulerAnglesHint.z
      value: 0
      objectReference: {fileID: 0}
    m_RemovedComponents: []
  m_SourcePrefab: {fileID: 100100000, guid: d83ae81b771a4452fbc13cf524c34f33, type: 3}
--- !u!4 &6416377390757249388 stripped
Transform:
  m_CorrespondingSourceObject: {fileID: 4644592167191524999, guid: d83ae81b771a4452fbc13cf524c34f33, type: 3}
  m_PrefabInstance: {fileID: 1837304589291632619}
  m_PrefabAsset: {fileID: 0}
--- !u!1001 &3131759771141780186
PrefabInstance:
  m_ObjectHideFlags: 0
  serializedVersion: 2
  m_Modification:
    m_TransformParent: {fileID: 3971192675114533681}
    m_Modifications:
    - target: {fileID: 6594736658096049474, guid: 3e10983313a664528bf6ffd3421ff8c1, type: 3}
      propertyPath: m_RootOrder
      value: 16
      objectReference: {fileID: 0}
    - target: {fileID: 6594736658096049474, guid: 3e10983313a664528bf6ffd3421ff8c1, type: 3}
      propertyPath: m_LocalPosition.x
      value: -1.6014001
      objectReference: {fileID: 0}
    - target: {fileID: 6594736658096049474, guid: 3e10983313a664528bf6ffd3421ff8c1, type: 3}
      propertyPath: m_LocalPosition.y
      value: 2.49523
      objectReference: {fileID: 0}
    - target: {fileID: 6594736658096049474, guid: 3e10983313a664528bf6ffd3421ff8c1, type: 3}
      propertyPath: m_LocalPosition.z
      value: 0
      objectReference: {fileID: 0}
    - target: {fileID: 6594736658096049474, guid: 3e10983313a664528bf6ffd3421ff8c1, type: 3}
      propertyPath: m_LocalRotation.w
      value: 1
      objectReference: {fileID: 0}
    - target: {fileID: 6594736658096049474, guid: 3e10983313a664528bf6ffd3421ff8c1, type: 3}
      propertyPath: m_LocalRotation.x
      value: -0
      objectReference: {fileID: 0}
    - target: {fileID: 6594736658096049474, guid: 3e10983313a664528bf6ffd3421ff8c1, type: 3}
      propertyPath: m_LocalRotation.y
      value: -0
      objectReference: {fileID: 0}
    - target: {fileID: 6594736658096049474, guid: 3e10983313a664528bf6ffd3421ff8c1, type: 3}
      propertyPath: m_LocalRotation.z
      value: -0
      objectReference: {fileID: 0}
    - target: {fileID: 6594736658096049474, guid: 3e10983313a664528bf6ffd3421ff8c1, type: 3}
      propertyPath: m_LocalEulerAnglesHint.x
      value: 0
      objectReference: {fileID: 0}
    - target: {fileID: 6594736658096049474, guid: 3e10983313a664528bf6ffd3421ff8c1, type: 3}
      propertyPath: m_LocalEulerAnglesHint.y
      value: 0
      objectReference: {fileID: 0}
    - target: {fileID: 6594736658096049474, guid: 3e10983313a664528bf6ffd3421ff8c1, type: 3}
      propertyPath: m_LocalEulerAnglesHint.z
      value: 0
      objectReference: {fileID: 0}
    - target: {fileID: 8854158604967348169, guid: 3e10983313a664528bf6ffd3421ff8c1, type: 3}
      propertyPath: m_Name
      value: LampN
      objectReference: {fileID: 0}
    m_RemovedComponents: []
  m_SourcePrefab: {fileID: 100100000, guid: 3e10983313a664528bf6ffd3421ff8c1, type: 3}
--- !u!4 &8138858742466510744 stripped
Transform:
  m_CorrespondingSourceObject: {fileID: 6594736658096049474, guid: 3e10983313a664528bf6ffd3421ff8c1, type: 3}
  m_PrefabInstance: {fileID: 3131759771141780186}
  m_PrefabAsset: {fileID: 0}
--- !u!1001 &3590604018292296361
PrefabInstance:
  m_ObjectHideFlags: 0
  serializedVersion: 2
  m_Modification:
    m_TransformParent: {fileID: 3971192675114533681}
    m_Modifications:
    - target: {fileID: 490330204513944614, guid: d83ae81b771a4452fbc13cf524c34f33, type: 3}
      propertyPath: m_Name
      value: LampE
      objectReference: {fileID: 0}
    - target: {fileID: 4644592167191524999, guid: d83ae81b771a4452fbc13cf524c34f33, type: 3}
      propertyPath: m_RootOrder
      value: 13
      objectReference: {fileID: 0}
    - target: {fileID: 4644592167191524999, guid: d83ae81b771a4452fbc13cf524c34f33, type: 3}
      propertyPath: m_LocalPosition.x
      value: 0.70820874
      objectReference: {fileID: 0}
    - target: {fileID: 4644592167191524999, guid: d83ae81b771a4452fbc13cf524c34f33, type: 3}
      propertyPath: m_LocalPosition.y
      value: 0.9999063
      objectReference: {fileID: 0}
    - target: {fileID: 4644592167191524999, guid: d83ae81b771a4452fbc13cf524c34f33, type: 3}
      propertyPath: m_LocalPosition.z
      value: 0
      objectReference: {fileID: 0}
    - target: {fileID: 4644592167191524999, guid: d83ae81b771a4452fbc13cf524c34f33, type: 3}
      propertyPath: m_LocalRotation.w
      value: 1
      objectReference: {fileID: 0}
    - target: {fileID: 4644592167191524999, guid: d83ae81b771a4452fbc13cf524c34f33, type: 3}
      propertyPath: m_LocalRotation.x
      value: -0
      objectReference: {fileID: 0}
    - target: {fileID: 4644592167191524999, guid: d83ae81b771a4452fbc13cf524c34f33, type: 3}
      propertyPath: m_LocalRotation.y
      value: -0
      objectReference: {fileID: 0}
    - target: {fileID: 4644592167191524999, guid: d83ae81b771a4452fbc13cf524c34f33, type: 3}
      propertyPath: m_LocalRotation.z
      value: -0
      objectReference: {fileID: 0}
    - target: {fileID: 4644592167191524999, guid: d83ae81b771a4452fbc13cf524c34f33, type: 3}
      propertyPath: m_LocalEulerAnglesHint.x
      value: 0
      objectReference: {fileID: 0}
    - target: {fileID: 4644592167191524999, guid: d83ae81b771a4452fbc13cf524c34f33, type: 3}
      propertyPath: m_LocalEulerAnglesHint.y
      value: 0
      objectReference: {fileID: 0}
    - target: {fileID: 4644592167191524999, guid: d83ae81b771a4452fbc13cf524c34f33, type: 3}
      propertyPath: m_LocalEulerAnglesHint.z
      value: 0
      objectReference: {fileID: 0}
    m_RemovedComponents: []
  m_SourcePrefab: {fileID: 100100000, guid: d83ae81b771a4452fbc13cf524c34f33, type: 3}
--- !u!4 &8187689959841610798 stripped
Transform:
  m_CorrespondingSourceObject: {fileID: 4644592167191524999, guid: d83ae81b771a4452fbc13cf524c34f33, type: 3}
  m_PrefabInstance: {fileID: 3590604018292296361}
  m_PrefabAsset: {fileID: 0}
--- !u!1001 &3749171557887732688
PrefabInstance:
  m_ObjectHideFlags: 0
  serializedVersion: 2
  m_Modification:
    m_TransformParent: {fileID: 3971192675114533681}
    m_Modifications:
    - target: {fileID: 2399072963789327493, guid: c2638bf4f8ce94c43b6e674226a56c7f, type: 3}
      propertyPath: m_RootOrder
      value: 4
      objectReference: {fileID: 0}
    - target: {fileID: 2399072963789327493, guid: c2638bf4f8ce94c43b6e674226a56c7f, type: 3}
      propertyPath: m_LocalPosition.x
      value: 0.1974299
      objectReference: {fileID: 0}
    - target: {fileID: 2399072963789327493, guid: c2638bf4f8ce94c43b6e674226a56c7f, type: 3}
      propertyPath: m_LocalPosition.y
      value: 1.407049
      objectReference: {fileID: 0}
    - target: {fileID: 2399072963789327493, guid: c2638bf4f8ce94c43b6e674226a56c7f, type: 3}
      propertyPath: m_LocalPosition.z
      value: 0
      objectReference: {fileID: 0}
    - target: {fileID: 2399072963789327493, guid: c2638bf4f8ce94c43b6e674226a56c7f, type: 3}
      propertyPath: m_LocalRotation.w
      value: 1
      objectReference: {fileID: 0}
    - target: {fileID: 2399072963789327493, guid: c2638bf4f8ce94c43b6e674226a56c7f, type: 3}
      propertyPath: m_LocalRotation.x
      value: -0
      objectReference: {fileID: 0}
    - target: {fileID: 2399072963789327493, guid: c2638bf4f8ce94c43b6e674226a56c7f, type: 3}
      propertyPath: m_LocalRotation.y
      value: -0
      objectReference: {fileID: 0}
    - target: {fileID: 2399072963789327493, guid: c2638bf4f8ce94c43b6e674226a56c7f, type: 3}
      propertyPath: m_LocalRotation.z
      value: -0
      objectReference: {fileID: 0}
    - target: {fileID: 2399072963789327493, guid: c2638bf4f8ce94c43b6e674226a56c7f, type: 3}
      propertyPath: m_LocalEulerAnglesHint.x
      value: 0
      objectReference: {fileID: 0}
    - target: {fileID: 2399072963789327493, guid: c2638bf4f8ce94c43b6e674226a56c7f, type: 3}
      propertyPath: m_LocalEulerAnglesHint.y
      value: 0
      objectReference: {fileID: 0}
    - target: {fileID: 2399072963789327493, guid: c2638bf4f8ce94c43b6e674226a56c7f, type: 3}
      propertyPath: m_LocalEulerAnglesHint.z
      value: 0
      objectReference: {fileID: 0}
    - target: {fileID: 2598695386480653085, guid: c2638bf4f8ce94c43b6e674226a56c7f, type: 3}
      propertyPath: m_Name
      value: Tree1
      objectReference: {fileID: 0}
    m_RemovedComponents: []
  m_SourcePrefab: {fileID: 100100000, guid: c2638bf4f8ce94c43b6e674226a56c7f, type: 3}
--- !u!4 &1534746213181384533 stripped
Transform:
  m_CorrespondingSourceObject: {fileID: 2399072963789327493, guid: c2638bf4f8ce94c43b6e674226a56c7f, type: 3}
  m_PrefabInstance: {fileID: 3749171557887732688}
  m_PrefabAsset: {fileID: 0}
--- !u!1001 &4099067062520739322
PrefabInstance:
  m_ObjectHideFlags: 0
  serializedVersion: 2
  m_Modification:
    m_TransformParent: {fileID: 3971192675114533681}
    m_Modifications:
    - target: {fileID: 3016187797374428012, guid: 2bf7dbc0aade64c0e81678f79e0499a8, type: 3}
      propertyPath: m_Name
      value: Bush1
      objectReference: {fileID: 0}
    - target: {fileID: 5195595808121501448, guid: 2bf7dbc0aade64c0e81678f79e0499a8, type: 3}
      propertyPath: m_RootOrder
      value: 9
      objectReference: {fileID: 0}
    - target: {fileID: 5195595808121501448, guid: 2bf7dbc0aade64c0e81678f79e0499a8, type: 3}
      propertyPath: m_LocalPosition.x
      value: 0.13820916
      objectReference: {fileID: 0}
    - target: {fileID: 5195595808121501448, guid: 2bf7dbc0aade64c0e81678f79e0499a8, type: 3}
      propertyPath: m_LocalPosition.y
      value: 2.4360092
      objectReference: {fileID: 0}
    - target: {fileID: 5195595808121501448, guid: 2bf7dbc0aade64c0e81678f79e0499a8, type: 3}
      propertyPath: m_LocalPosition.z
      value: 0
      objectReference: {fileID: 0}
    - target: {fileID: 5195595808121501448, guid: 2bf7dbc0aade64c0e81678f79e0499a8, type: 3}
      propertyPath: m_LocalRotation.w
      value: 1
      objectReference: {fileID: 0}
    - target: {fileID: 5195595808121501448, guid: 2bf7dbc0aade64c0e81678f79e0499a8, type: 3}
      propertyPath: m_LocalRotation.x
      value: -0
      objectReference: {fileID: 0}
    - target: {fileID: 5195595808121501448, guid: 2bf7dbc0aade64c0e81678f79e0499a8, type: 3}
      propertyPath: m_LocalRotation.y
      value: -0
      objectReference: {fileID: 0}
    - target: {fileID: 5195595808121501448, guid: 2bf7dbc0aade64c0e81678f79e0499a8, type: 3}
      propertyPath: m_LocalRotation.z
      value: -0
      objectReference: {fileID: 0}
    - target: {fileID: 5195595808121501448, guid: 2bf7dbc0aade64c0e81678f79e0499a8, type: 3}
      propertyPath: m_LocalEulerAnglesHint.x
      value: 0
      objectReference: {fileID: 0}
    - target: {fileID: 5195595808121501448, guid: 2bf7dbc0aade64c0e81678f79e0499a8, type: 3}
      propertyPath: m_LocalEulerAnglesHint.y
      value: 0
      objectReference: {fileID: 0}
    - target: {fileID: 5195595808121501448, guid: 2bf7dbc0aade64c0e81678f79e0499a8, type: 3}
      propertyPath: m_LocalEulerAnglesHint.z
      value: 0
      objectReference: {fileID: 0}
    m_RemovedComponents: []
  m_SourcePrefab: {fileID: 100100000, guid: 2bf7dbc0aade64c0e81678f79e0499a8, type: 3}
--- !u!4 &8140459850604364530 stripped
Transform:
  m_CorrespondingSourceObject: {fileID: 5195595808121501448, guid: 2bf7dbc0aade64c0e81678f79e0499a8, type: 3}
  m_PrefabInstance: {fileID: 4099067062520739322}
  m_PrefabAsset: {fileID: 0}
--- !u!1001 &4737326794168895174
PrefabInstance:
  m_ObjectHideFlags: 0
  serializedVersion: 2
  m_Modification:
    m_TransformParent: {fileID: 3971192675114533681}
    m_Modifications:
    - target: {fileID: 6701739516973774265, guid: 778c519a3a63d40639ac5cf5deb5d021, type: 3}
      propertyPath: m_RootOrder
      value: 11
      objectReference: {fileID: 0}
    - target: {fileID: 6701739516973774265, guid: 778c519a3a63d40639ac5cf5deb5d021, type: 3}
      propertyPath: m_LocalPosition.x
      value: -0.7130889
      objectReference: {fileID: 0}
    - target: {fileID: 6701739516973774265, guid: 778c519a3a63d40639ac5cf5deb5d021, type: 3}
      propertyPath: m_LocalPosition.y
      value: 1.5254905
      objectReference: {fileID: 0}
    - target: {fileID: 6701739516973774265, guid: 778c519a3a63d40639ac5cf5deb5d021, type: 3}
      propertyPath: m_LocalPosition.z
      value: 0
      objectReference: {fileID: 0}
    - target: {fileID: 6701739516973774265, guid: 778c519a3a63d40639ac5cf5deb5d021, type: 3}
      propertyPath: m_LocalRotation.w
      value: 1
      objectReference: {fileID: 0}
    - target: {fileID: 6701739516973774265, guid: 778c519a3a63d40639ac5cf5deb5d021, type: 3}
      propertyPath: m_LocalRotation.x
      value: -0
      objectReference: {fileID: 0}
    - target: {fileID: 6701739516973774265, guid: 778c519a3a63d40639ac5cf5deb5d021, type: 3}
      propertyPath: m_LocalRotation.y
      value: -0
      objectReference: {fileID: 0}
    - target: {fileID: 6701739516973774265, guid: 778c519a3a63d40639ac5cf5deb5d021, type: 3}
      propertyPath: m_LocalRotation.z
      value: -0
      objectReference: {fileID: 0}
    - target: {fileID: 6701739516973774265, guid: 778c519a3a63d40639ac5cf5deb5d021, type: 3}
      propertyPath: m_LocalEulerAnglesHint.x
      value: 0
      objectReference: {fileID: 0}
    - target: {fileID: 6701739516973774265, guid: 778c519a3a63d40639ac5cf5deb5d021, type: 3}
      propertyPath: m_LocalEulerAnglesHint.y
      value: 0
      objectReference: {fileID: 0}
    - target: {fileID: 6701739516973774265, guid: 778c519a3a63d40639ac5cf5deb5d021, type: 3}
      propertyPath: m_LocalEulerAnglesHint.z
      value: 0
      objectReference: {fileID: 0}
    - target: {fileID: 7197876584053036006, guid: 778c519a3a63d40639ac5cf5deb5d021, type: 3}
      propertyPath: m_Name
      value: Bench (1)
      objectReference: {fileID: 0}
    m_RemovedComponents: []
  m_SourcePrefab: {fileID: 100100000, guid: 778c519a3a63d40639ac5cf5deb5d021, type: 3}
--- !u!4 &2071375504548295551 stripped
Transform:
  m_CorrespondingSourceObject: {fileID: 6701739516973774265, guid: 778c519a3a63d40639ac5cf5deb5d021, type: 3}
  m_PrefabInstance: {fileID: 4737326794168895174}
  m_PrefabAsset: {fileID: 0}
--- !u!1001 &4860117128458703484
PrefabInstance:
  m_ObjectHideFlags: 0
  serializedVersion: 2
  m_Modification:
    m_TransformParent: {fileID: 3971192675114533681}
    m_Modifications:
    - target: {fileID: 490330204513944614, guid: d83ae81b771a4452fbc13cf524c34f33, type: 3}
      propertyPath: m_Name
      value: LampE (1)
      objectReference: {fileID: 0}
    - target: {fileID: 4644592167191524999, guid: d83ae81b771a4452fbc13cf524c34f33, type: 3}
      propertyPath: m_RootOrder
      value: 14
      objectReference: {fileID: 0}
    - target: {fileID: 4644592167191524999, guid: d83ae81b771a4452fbc13cf524c34f33, type: 3}
      propertyPath: m_LocalPosition.x
      value: 1.3966498
      objectReference: {fileID: 0}
    - target: {fileID: 4644592167191524999, guid: d83ae81b771a4452fbc13cf524c34f33, type: 3}
      propertyPath: m_LocalPosition.y
      value: 1.407049
      objectReference: {fileID: 0}
    - target: {fileID: 4644592167191524999, guid: d83ae81b771a4452fbc13cf524c34f33, type: 3}
      propertyPath: m_LocalPosition.z
      value: 0
      objectReference: {fileID: 0}
    - target: {fileID: 4644592167191524999, guid: d83ae81b771a4452fbc13cf524c34f33, type: 3}
      propertyPath: m_LocalRotation.w
      value: 1
      objectReference: {fileID: 0}
    - target: {fileID: 4644592167191524999, guid: d83ae81b771a4452fbc13cf524c34f33, type: 3}
      propertyPath: m_LocalRotation.x
      value: -0
      objectReference: {fileID: 0}
    - target: {fileID: 4644592167191524999, guid: d83ae81b771a4452fbc13cf524c34f33, type: 3}
      propertyPath: m_LocalRotation.y
      value: -0
      objectReference: {fileID: 0}
    - target: {fileID: 4644592167191524999, guid: d83ae81b771a4452fbc13cf524c34f33, type: 3}
      propertyPath: m_LocalRotation.z
      value: -0
      objectReference: {fileID: 0}
    - target: {fileID: 4644592167191524999, guid: d83ae81b771a4452fbc13cf524c34f33, type: 3}
      propertyPath: m_LocalEulerAnglesHint.x
      value: 0
      objectReference: {fileID: 0}
    - target: {fileID: 4644592167191524999, guid: d83ae81b771a4452fbc13cf524c34f33, type: 3}
      propertyPath: m_LocalEulerAnglesHint.y
      value: 0
      objectReference: {fileID: 0}
    - target: {fileID: 4644592167191524999, guid: d83ae81b771a4452fbc13cf524c34f33, type: 3}
      propertyPath: m_LocalEulerAnglesHint.z
      value: 0
      objectReference: {fileID: 0}
    m_RemovedComponents: []
  m_SourcePrefab: {fileID: 100100000, guid: d83ae81b771a4452fbc13cf524c34f33, type: 3}
--- !u!4 &217999279444305147 stripped
Transform:
  m_CorrespondingSourceObject: {fileID: 4644592167191524999, guid: d83ae81b771a4452fbc13cf524c34f33, type: 3}
  m_PrefabInstance: {fileID: 4860117128458703484}
  m_PrefabAsset: {fileID: 0}
--- !u!1001 &4882716262718109727
PrefabInstance:
  m_ObjectHideFlags: 0
  serializedVersion: 2
  m_Modification:
    m_TransformParent: {fileID: 3971192675114533681}
    m_Modifications:
    - target: {fileID: 972239059580946986, guid: 0666a400fb25f4c66b1b8ec12297e52a, type: 3}
      propertyPath: m_Name
      value: Bush2
      objectReference: {fileID: 0}
    - target: {fileID: 8831987552455021339, guid: 0666a400fb25f4c66b1b8ec12297e52a, type: 3}
      propertyPath: m_RootOrder
      value: 8
      objectReference: {fileID: 0}
    - target: {fileID: 8831987552455021339, guid: 0666a400fb25f4c66b1b8ec12297e52a, type: 3}
      propertyPath: m_LocalPosition.x
      value: -0.26153082
      objectReference: {fileID: 0}
    - target: {fileID: 8831987552455021339, guid: 0666a400fb25f4c66b1b8ec12297e52a, type: 3}
      propertyPath: m_LocalPosition.y
      value: 1.7845812
      objectReference: {fileID: 0}
    - target: {fileID: 8831987552455021339, guid: 0666a400fb25f4c66b1b8ec12297e52a, type: 3}
      propertyPath: m_LocalPosition.z
      value: 0
      objectReference: {fileID: 0}
    - target: {fileID: 8831987552455021339, guid: 0666a400fb25f4c66b1b8ec12297e52a, type: 3}
      propertyPath: m_LocalRotation.w
      value: 1
      objectReference: {fileID: 0}
    - target: {fileID: 8831987552455021339, guid: 0666a400fb25f4c66b1b8ec12297e52a, type: 3}
      propertyPath: m_LocalRotation.x
      value: -0
      objectReference: {fileID: 0}
    - target: {fileID: 8831987552455021339, guid: 0666a400fb25f4c66b1b8ec12297e52a, type: 3}
      propertyPath: m_LocalRotation.y
      value: -0
      objectReference: {fileID: 0}
    - target: {fileID: 8831987552455021339, guid: 0666a400fb25f4c66b1b8ec12297e52a, type: 3}
      propertyPath: m_LocalRotation.z
      value: -0
      objectReference: {fileID: 0}
    - target: {fileID: 8831987552455021339, guid: 0666a400fb25f4c66b1b8ec12297e52a, type: 3}
      propertyPath: m_LocalEulerAnglesHint.x
      value: 0
      objectReference: {fileID: 0}
    - target: {fileID: 8831987552455021339, guid: 0666a400fb25f4c66b1b8ec12297e52a, type: 3}
      propertyPath: m_LocalEulerAnglesHint.y
      value: 0
      objectReference: {fileID: 0}
    - target: {fileID: 8831987552455021339, guid: 0666a400fb25f4c66b1b8ec12297e52a, type: 3}
      propertyPath: m_LocalEulerAnglesHint.z
      value: 0
      objectReference: {fileID: 0}
    m_RemovedComponents: []
  m_SourcePrefab: {fileID: 100100000, guid: 0666a400fb25f4c66b1b8ec12297e52a, type: 3}
--- !u!4 &4130752419822119684 stripped
Transform:
  m_CorrespondingSourceObject: {fileID: 8831987552455021339, guid: 0666a400fb25f4c66b1b8ec12297e52a, type: 3}
  m_PrefabInstance: {fileID: 4882716262718109727}
  m_PrefabAsset: {fileID: 0}
--- !u!1001 &5804507257551072835
PrefabInstance:
  m_ObjectHideFlags: 0
  serializedVersion: 2
  m_Modification:
    m_TransformParent: {fileID: 3971192675114533681}
    m_Modifications:
    - target: {fileID: 2399072963789327493, guid: c2638bf4f8ce94c43b6e674226a56c7f, type: 3}
      propertyPath: m_RootOrder
      value: 7
      objectReference: {fileID: 0}
    - target: {fileID: 2399072963789327493, guid: c2638bf4f8ce94c43b6e674226a56c7f, type: 3}
      propertyPath: m_LocalPosition.x
      value: -0.276336
      objectReference: {fileID: 0}
    - target: {fileID: 2399072963789327493, guid: c2638bf4f8ce94c43b6e674226a56c7f, type: 3}
      propertyPath: m_LocalPosition.y
      value: 2.0066588
      objectReference: {fileID: 0}
    - target: {fileID: 2399072963789327493, guid: c2638bf4f8ce94c43b6e674226a56c7f, type: 3}
      propertyPath: m_LocalPosition.z
      value: 0
      objectReference: {fileID: 0}
    - target: {fileID: 2399072963789327493, guid: c2638bf4f8ce94c43b6e674226a56c7f, type: 3}
      propertyPath: m_LocalRotation.w
      value: 1
      objectReference: {fileID: 0}
    - target: {fileID: 2399072963789327493, guid: c2638bf4f8ce94c43b6e674226a56c7f, type: 3}
      propertyPath: m_LocalRotation.x
      value: -0
      objectReference: {fileID: 0}
    - target: {fileID: 2399072963789327493, guid: c2638bf4f8ce94c43b6e674226a56c7f, type: 3}
      propertyPath: m_LocalRotation.y
      value: -0
      objectReference: {fileID: 0}
    - target: {fileID: 2399072963789327493, guid: c2638bf4f8ce94c43b6e674226a56c7f, type: 3}
      propertyPath: m_LocalRotation.z
      value: -0
      objectReference: {fileID: 0}
    - target: {fileID: 2399072963789327493, guid: c2638bf4f8ce94c43b6e674226a56c7f, type: 3}
      propertyPath: m_LocalEulerAnglesHint.x
      value: 0
      objectReference: {fileID: 0}
    - target: {fileID: 2399072963789327493, guid: c2638bf4f8ce94c43b6e674226a56c7f, type: 3}
      propertyPath: m_LocalEulerAnglesHint.y
      value: 0
      objectReference: {fileID: 0}
    - target: {fileID: 2399072963789327493, guid: c2638bf4f8ce94c43b6e674226a56c7f, type: 3}
      propertyPath: m_LocalEulerAnglesHint.z
      value: 0
      objectReference: {fileID: 0}
    - target: {fileID: 2598695386480653085, guid: c2638bf4f8ce94c43b6e674226a56c7f, type: 3}
      propertyPath: m_Name
      value: Tree1 (1)
      objectReference: {fileID: 0}
    m_RemovedComponents: []
  m_SourcePrefab: {fileID: 100100000, guid: c2638bf4f8ce94c43b6e674226a56c7f, type: 3}
--- !u!4 &8198513668924252870 stripped
Transform:
  m_CorrespondingSourceObject: {fileID: 2399072963789327493, guid: c2638bf4f8ce94c43b6e674226a56c7f, type: 3}
  m_PrefabInstance: {fileID: 5804507257551072835}
  m_PrefabAsset: {fileID: 0}
--- !u!1001 &6199742130640010113
PrefabInstance:
  m_ObjectHideFlags: 0
  serializedVersion: 2
  m_Modification:
    m_TransformParent: {fileID: 3971192675114533681}
    m_Modifications:
    - target: {fileID: 8148667289656962222, guid: 6faf996a439b84ee583986f5976a6942, type: 3}
      propertyPath: m_RootOrder
      value: 2
      objectReference: {fileID: 0}
    - target: {fileID: 8148667289656962222, guid: 6faf996a439b84ee583986f5976a6942, type: 3}
      propertyPath: m_LocalPosition.x
      value: -0.52802414
      objectReference: {fileID: 0}
    - target: {fileID: 8148667289656962222, guid: 6faf996a439b84ee583986f5976a6942, type: 3}
      propertyPath: m_LocalPosition.y
      value: 1.7253604
      objectReference: {fileID: 0}
    - target: {fileID: 8148667289656962222, guid: 6faf996a439b84ee583986f5976a6942, type: 3}
      propertyPath: m_LocalPosition.z
      value: 0
      objectReference: {fileID: 0}
    - target: {fileID: 8148667289656962222, guid: 6faf996a439b84ee583986f5976a6942, type: 3}
      propertyPath: m_LocalRotation.w
      value: 1
      objectReference: {fileID: 0}
    - target: {fileID: 8148667289656962222, guid: 6faf996a439b84ee583986f5976a6942, type: 3}
      propertyPath: m_LocalRotation.x
      value: -0
      objectReference: {fileID: 0}
    - target: {fileID: 8148667289656962222, guid: 6faf996a439b84ee583986f5976a6942, type: 3}
      propertyPath: m_LocalRotation.y
      value: -0
      objectReference: {fileID: 0}
    - target: {fileID: 8148667289656962222, guid: 6faf996a439b84ee583986f5976a6942, type: 3}
      propertyPath: m_LocalRotation.z
      value: -0
      objectReference: {fileID: 0}
    - target: {fileID: 8148667289656962222, guid: 6faf996a439b84ee583986f5976a6942, type: 3}
      propertyPath: m_LocalEulerAnglesHint.x
      value: 0
      objectReference: {fileID: 0}
    - target: {fileID: 8148667289656962222, guid: 6faf996a439b84ee583986f5976a6942, type: 3}
      propertyPath: m_LocalEulerAnglesHint.y
      value: 0
      objectReference: {fileID: 0}
    - target: {fileID: 8148667289656962222, guid: 6faf996a439b84ee583986f5976a6942, type: 3}
      propertyPath: m_LocalEulerAnglesHint.z
      value: 0
      objectReference: {fileID: 0}
    - target: {fileID: 8751590600255432265, guid: 6faf996a439b84ee583986f5976a6942, type: 3}
      propertyPath: m_Name
      value: Tree2
      objectReference: {fileID: 0}
    m_RemovedComponents: []
  m_SourcePrefab: {fileID: 100100000, guid: 6faf996a439b84ee583986f5976a6942, type: 3}
--- !u!4 &2818137530926044975 stripped
Transform:
  m_CorrespondingSourceObject: {fileID: 8148667289656962222, guid: 6faf996a439b84ee583986f5976a6942, type: 3}
  m_PrefabInstance: {fileID: 6199742130640010113}
  m_PrefabAsset: {fileID: 0}
--- !u!1001 &6644871379159507072
PrefabInstance:
  m_ObjectHideFlags: 0
  serializedVersion: 2
  m_Modification:
    m_TransformParent: {fileID: 3971192675114533681}
    m_Modifications:
    - target: {fileID: 6701739516973774265, guid: 778c519a3a63d40639ac5cf5deb5d021, type: 3}
      propertyPath: m_RootOrder
      value: 12
      objectReference: {fileID: 0}
    - target: {fileID: 6701739516973774265, guid: 778c519a3a63d40639ac5cf5deb5d021, type: 3}
      propertyPath: m_LocalPosition.x
      value: -0.31334895
      objectReference: {fileID: 0}
    - target: {fileID: 6701739516973774265, guid: 778c519a3a63d40639ac5cf5deb5d021, type: 3}
      propertyPath: m_LocalPosition.y
      value: 1.3108152
      objectReference: {fileID: 0}
    - target: {fileID: 6701739516973774265, guid: 778c519a3a63d40639ac5cf5deb5d021, type: 3}
      propertyPath: m_LocalPosition.z
      value: 0
      objectReference: {fileID: 0}
    - target: {fileID: 6701739516973774265, guid: 778c519a3a63d40639ac5cf5deb5d021, type: 3}
      propertyPath: m_LocalRotation.w
      value: 1
      objectReference: {fileID: 0}
    - target: {fileID: 6701739516973774265, guid: 778c519a3a63d40639ac5cf5deb5d021, type: 3}
      propertyPath: m_LocalRotation.x
      value: -0
      objectReference: {fileID: 0}
    - target: {fileID: 6701739516973774265, guid: 778c519a3a63d40639ac5cf5deb5d021, type: 3}
      propertyPath: m_LocalRotation.y
      value: -0
      objectReference: {fileID: 0}
    - target: {fileID: 6701739516973774265, guid: 778c519a3a63d40639ac5cf5deb5d021, type: 3}
      propertyPath: m_LocalRotation.z
      value: -0
      objectReference: {fileID: 0}
    - target: {fileID: 6701739516973774265, guid: 778c519a3a63d40639ac5cf5deb5d021, type: 3}
      propertyPath: m_LocalEulerAnglesHint.x
      value: 0
      objectReference: {fileID: 0}
    - target: {fileID: 6701739516973774265, guid: 778c519a3a63d40639ac5cf5deb5d021, type: 3}
      propertyPath: m_LocalEulerAnglesHint.y
      value: 0
      objectReference: {fileID: 0}
    - target: {fileID: 6701739516973774265, guid: 778c519a3a63d40639ac5cf5deb5d021, type: 3}
      propertyPath: m_LocalEulerAnglesHint.z
      value: 0
      objectReference: {fileID: 0}
    - target: {fileID: 7197876584053036006, guid: 778c519a3a63d40639ac5cf5deb5d021, type: 3}
      propertyPath: m_Name
      value: Bench (2)
      objectReference: {fileID: 0}
    m_RemovedComponents: []
  m_SourcePrefab: {fileID: 100100000, guid: 778c519a3a63d40639ac5cf5deb5d021, type: 3}
--- !u!4 &87274583217739065 stripped
Transform:
  m_CorrespondingSourceObject: {fileID: 6701739516973774265, guid: 778c519a3a63d40639ac5cf5deb5d021, type: 3}
  m_PrefabInstance: {fileID: 6644871379159507072}
  m_PrefabAsset: {fileID: 0}
--- !u!1001 &7400803381685083527
PrefabInstance:
  m_ObjectHideFlags: 0
  serializedVersion: 2
  m_Modification:
    m_TransformParent: {fileID: 3971192675114533681}
    m_Modifications:
    - target: {fileID: 6594736658096049474, guid: 3e10983313a664528bf6ffd3421ff8c1, type: 3}
      propertyPath: m_RootOrder
      value: 17
      objectReference: {fileID: 0}
    - target: {fileID: 6594736658096049474, guid: 3e10983313a664528bf6ffd3421ff8c1, type: 3}
      propertyPath: m_LocalPosition.x
      value: -1.0165951
      objectReference: {fileID: 0}
    - target: {fileID: 6594736658096049474, guid: 3e10983313a664528bf6ffd3421ff8c1, type: 3}
      propertyPath: m_LocalPosition.y
      value: 2.8727622
      objectReference: {fileID: 0}
    - target: {fileID: 6594736658096049474, guid: 3e10983313a664528bf6ffd3421ff8c1, type: 3}
      propertyPath: m_LocalPosition.z
      value: 0
      objectReference: {fileID: 0}
    - target: {fileID: 6594736658096049474, guid: 3e10983313a664528bf6ffd3421ff8c1, type: 3}
      propertyPath: m_LocalRotation.w
      value: 1
      objectReference: {fileID: 0}
    - target: {fileID: 6594736658096049474, guid: 3e10983313a664528bf6ffd3421ff8c1, type: 3}
      propertyPath: m_LocalRotation.x
      value: -0
      objectReference: {fileID: 0}
    - target: {fileID: 6594736658096049474, guid: 3e10983313a664528bf6ffd3421ff8c1, type: 3}
      propertyPath: m_LocalRotation.y
      value: -0
      objectReference: {fileID: 0}
    - target: {fileID: 6594736658096049474, guid: 3e10983313a664528bf6ffd3421ff8c1, type: 3}
      propertyPath: m_LocalRotation.z
      value: -0
      objectReference: {fileID: 0}
    - target: {fileID: 6594736658096049474, guid: 3e10983313a664528bf6ffd3421ff8c1, type: 3}
      propertyPath: m_LocalEulerAnglesHint.x
      value: 0
      objectReference: {fileID: 0}
    - target: {fileID: 6594736658096049474, guid: 3e10983313a664528bf6ffd3421ff8c1, type: 3}
      propertyPath: m_LocalEulerAnglesHint.y
      value: 0
      objectReference: {fileID: 0}
    - target: {fileID: 6594736658096049474, guid: 3e10983313a664528bf6ffd3421ff8c1, type: 3}
      propertyPath: m_LocalEulerAnglesHint.z
      value: 0
      objectReference: {fileID: 0}
    - target: {fileID: 8854158604967348169, guid: 3e10983313a664528bf6ffd3421ff8c1, type: 3}
      propertyPath: m_Name
      value: LampN (1)
      objectReference: {fileID: 0}
    m_RemovedComponents: []
  m_SourcePrefab: {fileID: 100100000, guid: 3e10983313a664528bf6ffd3421ff8c1, type: 3}
--- !u!4 &4409544629202358469 stripped
Transform:
  m_CorrespondingSourceObject: {fileID: 6594736658096049474, guid: 3e10983313a664528bf6ffd3421ff8c1, type: 3}
  m_PrefabInstance: {fileID: 7400803381685083527}
  m_PrefabAsset: {fileID: 0}
--- !u!1001 &7734070695878495601
PrefabInstance:
  m_ObjectHideFlags: 0
  serializedVersion: 2
  m_Modification:
    m_TransformParent: {fileID: 3971192675114533681}
    m_Modifications:
    - target: {fileID: 487740003472506658, guid: d9c03c0f9c4ac484092805075995f5b6, type: 3}
      propertyPath: m_Name
      value: Tree3
      objectReference: {fileID: 0}
    - target: {fileID: 8914435214892677046, guid: d9c03c0f9c4ac484092805075995f5b6, type: 3}
      propertyPath: m_RootOrder
      value: 3
      objectReference: {fileID: 0}
    - target: {fileID: 8914435214892677046, guid: d9c03c0f9c4ac484092805075995f5b6, type: 3}
      propertyPath: m_LocalPosition.x
      value: 0.0937936
      objectReference: {fileID: 0}
    - target: {fileID: 8914435214892677046, guid: d9c03c0f9c4ac484092805075995f5b6, type: 3}
      propertyPath: m_LocalPosition.y
      value: 2.6654897
      objectReference: {fileID: 0}
    - target: {fileID: 8914435214892677046, guid: d9c03c0f9c4ac484092805075995f5b6, type: 3}
      propertyPath: m_LocalPosition.z
      value: 0
      objectReference: {fileID: 0}
    - target: {fileID: 8914435214892677046, guid: d9c03c0f9c4ac484092805075995f5b6, type: 3}
      propertyPath: m_LocalRotation.w
      value: 1
      objectReference: {fileID: 0}
    - target: {fileID: 8914435214892677046, guid: d9c03c0f9c4ac484092805075995f5b6, type: 3}
      propertyPath: m_LocalRotation.x
      value: -0
      objectReference: {fileID: 0}
    - target: {fileID: 8914435214892677046, guid: d9c03c0f9c4ac484092805075995f5b6, type: 3}
      propertyPath: m_LocalRotation.y
      value: -0
      objectReference: {fileID: 0}
    - target: {fileID: 8914435214892677046, guid: d9c03c0f9c4ac484092805075995f5b6, type: 3}
      propertyPath: m_LocalRotation.z
      value: -0
      objectReference: {fileID: 0}
    - target: {fileID: 8914435214892677046, guid: d9c03c0f9c4ac484092805075995f5b6, type: 3}
      propertyPath: m_LocalEulerAnglesHint.x
      value: 0
      objectReference: {fileID: 0}
    - target: {fileID: 8914435214892677046, guid: d9c03c0f9c4ac484092805075995f5b6, type: 3}
      propertyPath: m_LocalEulerAnglesHint.y
      value: 0
      objectReference: {fileID: 0}
    - target: {fileID: 8914435214892677046, guid: d9c03c0f9c4ac484092805075995f5b6, type: 3}
      propertyPath: m_LocalEulerAnglesHint.z
      value: 0
      objectReference: {fileID: 0}
    m_RemovedComponents: []
  m_SourcePrefab: {fileID: 100100000, guid: d9c03c0f9c4ac484092805075995f5b6, type: 3}
--- !u!4 &1216710542688893639 stripped
Transform:
  m_CorrespondingSourceObject: {fileID: 8914435214892677046, guid: d9c03c0f9c4ac484092805075995f5b6, type: 3}
  m_PrefabInstance: {fileID: 7734070695878495601}
  m_PrefabAsset: {fileID: 0}
--- !u!1001 &7827443946273659875
PrefabInstance:
  m_ObjectHideFlags: 0
  serializedVersion: 2
  m_Modification:
    m_TransformParent: {fileID: 3971192675114533681}
    m_Modifications:
    - target: {fileID: 487740003472506658, guid: d9c03c0f9c4ac484092805075995f5b6, type: 3}
      propertyPath: m_Name
      value: Tree3 (1)
      objectReference: {fileID: 0}
    - target: {fileID: 8914435214892677046, guid: d9c03c0f9c4ac484092805075995f5b6, type: 3}
      propertyPath: m_RootOrder
      value: 6
      objectReference: {fileID: 0}
    - target: {fileID: 8914435214892677046, guid: d9c03c0f9c4ac484092805075995f5b6, type: 3}
      propertyPath: m_LocalPosition.x
      value: -1.1498418
      objectReference: {fileID: 0}
    - target: {fileID: 8914435214892677046, guid: d9c03c0f9c4ac484092805075995f5b6, type: 3}
      propertyPath: m_LocalPosition.y
      value: 1.9548408
      objectReference: {fileID: 0}
    - target: {fileID: 8914435214892677046, guid: d9c03c0f9c4ac484092805075995f5b6, type: 3}
      propertyPath: m_LocalPosition.z
      value: 0
      objectReference: {fileID: 0}
    - target: {fileID: 8914435214892677046, guid: d9c03c0f9c4ac484092805075995f5b6, type: 3}
      propertyPath: m_LocalRotation.w
      value: 1
      objectReference: {fileID: 0}
    - target: {fileID: 8914435214892677046, guid: d9c03c0f9c4ac484092805075995f5b6, type: 3}
      propertyPath: m_LocalRotation.x
      value: -0
      objectReference: {fileID: 0}
    - target: {fileID: 8914435214892677046, guid: d9c03c0f9c4ac484092805075995f5b6, type: 3}
      propertyPath: m_LocalRotation.y
      value: -0
      objectReference: {fileID: 0}
    - target: {fileID: 8914435214892677046, guid: d9c03c0f9c4ac484092805075995f5b6, type: 3}
      propertyPath: m_LocalRotation.z
      value: -0
      objectReference: {fileID: 0}
    - target: {fileID: 8914435214892677046, guid: d9c03c0f9c4ac484092805075995f5b6, type: 3}
      propertyPath: m_LocalEulerAnglesHint.x
      value: 0
      objectReference: {fileID: 0}
    - target: {fileID: 8914435214892677046, guid: d9c03c0f9c4ac484092805075995f5b6, type: 3}
      propertyPath: m_LocalEulerAnglesHint.y
      value: 0
      objectReference: {fileID: 0}
    - target: {fileID: 8914435214892677046, guid: d9c03c0f9c4ac484092805075995f5b6, type: 3}
      propertyPath: m_LocalEulerAnglesHint.z
      value: 0
      objectReference: {fileID: 0}
    m_RemovedComponents: []
  m_SourcePrefab: {fileID: 100100000, guid: d9c03c0f9c4ac484092805075995f5b6, type: 3}
--- !u!4 &1663734080283700309 stripped
Transform:
  m_CorrespondingSourceObject: {fileID: 8914435214892677046, guid: d9c03c0f9c4ac484092805075995f5b6, type: 3}
  m_PrefabInstance: {fileID: 7827443946273659875}
  m_PrefabAsset: {fileID: 0}
--- !u!1001 &8875379013439477234
PrefabInstance:
  m_ObjectHideFlags: 0
  serializedVersion: 2
  m_Modification:
    m_TransformParent: {fileID: 3971192675114533681}
    m_Modifications:
    - target: {fileID: 6595688661774498296, guid: 139c9480f59ea4bb2a364e7937947295, type: 3}
      propertyPath: m_RootOrder
      value: 5
      objectReference: {fileID: 0}
    - target: {fileID: 6595688661774498296, guid: 139c9480f59ea4bb2a364e7937947295, type: 3}
      propertyPath: m_LocalPosition.x
      value: 1.1227539
      objectReference: {fileID: 0}
    - target: {fileID: 6595688661774498296, guid: 139c9480f59ea4bb2a364e7937947295, type: 3}
      propertyPath: m_LocalPosition.y
      value: 2.058477
      objectReference: {fileID: 0}
    - target: {fileID: 6595688661774498296, guid: 139c9480f59ea4bb2a364e7937947295, type: 3}
      propertyPath: m_LocalPosition.z
      value: 0
      objectReference: {fileID: 0}
    - target: {fileID: 6595688661774498296, guid: 139c9480f59ea4bb2a364e7937947295, type: 3}
      propertyPath: m_LocalRotation.w
      value: 1
      objectReference: {fileID: 0}
    - target: {fileID: 6595688661774498296, guid: 139c9480f59ea4bb2a364e7937947295, type: 3}
      propertyPath: m_LocalRotation.x
      value: -0
      objectReference: {fileID: 0}
    - target: {fileID: 6595688661774498296, guid: 139c9480f59ea4bb2a364e7937947295, type: 3}
      propertyPath: m_LocalRotation.y
      value: -0
      objectReference: {fileID: 0}
    - target: {fileID: 6595688661774498296, guid: 139c9480f59ea4bb2a364e7937947295, type: 3}
      propertyPath: m_LocalRotation.z
      value: -0
      objectReference: {fileID: 0}
    - target: {fileID: 6595688661774498296, guid: 139c9480f59ea4bb2a364e7937947295, type: 3}
      propertyPath: m_LocalEulerAnglesHint.x
      value: 0
      objectReference: {fileID: 0}
    - target: {fileID: 6595688661774498296, guid: 139c9480f59ea4bb2a364e7937947295, type: 3}
      propertyPath: m_LocalEulerAnglesHint.y
      value: 0
      objectReference: {fileID: 0}
    - target: {fileID: 6595688661774498296, guid: 139c9480f59ea4bb2a364e7937947295, type: 3}
      propertyPath: m_LocalEulerAnglesHint.z
      value: 0
      objectReference: {fileID: 0}
    - target: {fileID: 8401751734435411687, guid: 139c9480f59ea4bb2a364e7937947295, type: 3}
      propertyPath: m_Name
      value: Tree4
      objectReference: {fileID: 0}
    m_RemovedComponents: []
  m_SourcePrefab: {fileID: 100100000, guid: 139c9480f59ea4bb2a364e7937947295, type: 3}
--- !u!4 &2351787013803846666 stripped
Transform:
  m_CorrespondingSourceObject: {fileID: 6595688661774498296, guid: 139c9480f59ea4bb2a364e7937947295, type: 3}
  m_PrefabInstance: {fileID: 8875379013439477234}
  m_PrefabAsset: {fileID: 0}
