%YAML 1.1
%TAG !u! tag:unity3d.com,2011:
--- !u!687078895 &4343727234628468602
SpriteAtlas:
  m_ObjectHideFlags: 0
  m_CorrespondingSourceObject: {fileID: 0}
  m_PrefabInstance: {fileID: 0}
  m_PrefabAsset: {fileID: 0}
  m_Name: atlas_object
  m_EditorData:
    serializedVersion: 2
    textureSettings:
      serializedVersion: 2
      anisoLevel: 1
      compressionQuality: 50
      maxTextureSize: 2048
      textureCompression: 0
      filterMode: 1
      generateMipMaps: 0
      readable: 0
      crunchedCompression: 0
      sRGB: 1
    platformSettings:
    - serializedVersion: 3
      m_BuildTarget: DefaultTexturePlatform
      m_MaxTextureSize: 2048
      m_ResizeAlgorithm: 0
      m_TextureFormat: -1
      m_TextureCompression: 2
      m_CompressionQuality: 50
      m_CrunchedCompression: 0
      m_AllowsAlphaSplitting: 0
      m_Overridden: 0
      m_AndroidETC2FallbackOverride: 0
      m_ForceMaximumCompressionQuality_BC6H_BC7: 0
    packingSettings:
      serializedVersion: 2
      padding: 4
      blockOffset: 1
      allowAlphaSplitting: 0
      enableRotation: 0
      enableTightPacking: 0
    secondaryTextureSettings: {}
    variantMultiplier: 1
    packables:
    - {fileID: 102900000, guid: e5f34d920582f43e4a5916ac21893277, type: 3}
    - {fileID: 102900000, guid: 19adec8dab7734a8a86068c68b75d785, type: 3}
    - {fileID: 102900000, guid: 0a2305ef42f0d46ee82de0a1dfedf4ef, type: 3}
    - {fileID: 102900000, guid: 4050cfd6f71284659a8e38b7b8fe25c5, type: 3}
    - {fileID: 102900000, guid: 2ccc77c3a03764d988ee63c4ea56a164, type: 3}
    bindAsDefault: 1
    isAtlasV2: 0
    cachedData: {fileID: 0}
  m_MasterAtlas: {fileID: 0}
  m_PackedSprites:
  - {fileID: 21300000, guid: 14dae510c07394098a7ec69dafaff022, type: 3}
  - {fileID: 21300000, guid: e7e0a020a9779494b81fb20d9a4a55ea, type: 3}
  - {fileID: 21300000, guid: e161c5808a28f4af3adbebe9be0658ff, type: 3}
  - {fileID: 21300000, guid: e8e541a0aa2d9a040adbb0a1e947c3e9, type: 3}
  - {fileID: 21300000, guid: 9b2f53d0d3a794519b68f31223f85534, type: 3}
  - {fileID: 21300000, guid: f65a63d06d17443ca9b17f9021856592, type: 3}
  - {fileID: 21300000, guid: ccbbc4d0cb965460f8523d9d9df99cb0, type: 3}
  - {fileID: 21300000, guid: 0cb203f06cf84485bba9e7e392deac92, type: 3}
  - {fileID: 21300000, guid: 8a61f201b49bc7549b315ad03d2201c5, type: 3}
  - {fileID: 21300000, guid: 97038f71f9d704159a038dda44e6d541, type: 3}
  - {fileID: 21300000, guid: 92edbaa19013549a995b817f1043981e, type: 3}
  - {fileID: 21300000, guid: a21e2ab1b656145fab77f8a400187d07, type: 3}
  - {fileID: 21300000, guid: d9299002759e627419de464670b996a4, type: 3}
  - {fileID: 21300000, guid: 5ef09e428ebcd6d4285858a3eceefdca, type: 3}
  - {fileID: 21300000, guid: 3bea3e33984f94fe8b7d62a73a9e51c0, type: 3}
  - {fileID: 21300000, guid: 996cf863df71a4e8a87d4cb65c6ef074, type: 3}
  - {fileID: 21300000, guid: 5dc337a3c5b05431aa7d15389fe38dcb, type: 3}
  - {fileID: 21300000, guid: b86170b3a6d48483799321fdef874048, type: 3}
  - {fileID: 21300000, guid: cffa3424215e64432852eb4f5f08f81c, type: 3}
  - {fileID: 21300000, guid: ac3d4e849f2744900a6b501e8a44fc0a, type: 3}
  - {fileID: 21300000, guid: de22d0f48404d409fa7d1de4e81ef6da, type: 3}
  - {fileID: 21300000, guid: fe86ebf4db7b57d40ae7873e9ea9d2e9, type: 3}
  - {fileID: 21300000, guid: a733f4459bf384802bf209974194c0a8, type: 3}
  - {fileID: 21300000, guid: 245d93e545fab4741b42030e2eff736e, type: 3}
  - {fileID: 21300000, guid: a253d4f5c74238e46861c498423bf29d, type: 3}
  - {fileID: 21300000, guid: 206d6c164cf84451c8850d6359f4bbc8, type: 3}
  - {fileID: 21300000, guid: 94d4f266253e34f78a40dee8bfd6ce36, type: 3}
  - {fileID: 21300000, guid: 0f6706b6d997849b1b2722e240fa0cd0, type: 3}
  - {fileID: 21300000, guid: 9afd0ce6dd462c945932bb91f69ece50, type: 3}
  - {fileID: 21300000, guid: 6e4f3727e2a4e4ab6bb0276b2d1aea4f, type: 3}
  - {fileID: 21300000, guid: 6827ab27792594663a7c136d656679c0, type: 3}
  - {fileID: 21300000, guid: 716aa537055bc604c8d552c91f15c3fe, type: 3}
  - {fileID: 21300000, guid: 3e055047662b1f144882831736a68c1c, type: 3}
  - {fileID: 21300000, guid: 3d25ab084ee704d5b94ba23cd4656203, type: 3}
  - {fileID: 21300000, guid: af76a338ed74e4af3b7af2875b0aa1fe, type: 3}
  - {fileID: 21300000, guid: 80cf3268c9ff549ebaea7a51e7310685, type: 3}
  - {fileID: 21300000, guid: ec801668031638a40b0392dd943418a8, type: 3}
  - {fileID: 21300000, guid: 8ee635a85538c68499c199de829b3039, type: 3}
  - {fileID: 21300000, guid: 72ba8db8eb0a840239b921a7237b5d2c, type: 3}
  - {fileID: 21300000, guid: 066c3ae8e6a7c5542b8fa325df01e8f9, type: 3}
  - {fileID: 21300000, guid: 03556929cb2854afe9514dbd13fe9dd2, type: 3}
  - {fileID: 21300000, guid: 88690639772c7428abdfccf583bf7489, type: 3}
  - {fileID: 21300000, guid: 854fd559b4bbe4701b2e334fdee34141, type: 3}
  - {fileID: 21300000, guid: 813dd859263af644d86e8beb76152670, type: 3}
  - {fileID: 21300000, guid: 4cd788b91ef0d488e862917d002497fd, type: 3}
  - {fileID: 21300000, guid: 0f82070a803c24e0ea52de9e03786400, type: 3}
  - {fileID: 21300000, guid: c82ff32ad83df4b298c9a6179c863219, type: 3}
  - {fileID: 21300000, guid: 5a6a103ab5cee4f51899fb6f0c738319, type: 3}
  - {fileID: 21300000, guid: 65abfb5ab10bc479a803628465d3b819, type: 3}
  - {fileID: 21300000, guid: 13b7d68ad87c5499c9b9359f4cfae959, type: 3}
  - {fileID: 21300000, guid: 0a33625bdb24046e089b22c2494d2640, type: 3}
  - {fileID: 21300000, guid: 7f719a9b46d8748a9b3ccdbdbf53c9e5, type: 3}
  - {fileID: 21300000, guid: 8c97dcab3e1e84a5bb74d9728f49a74a, type: 3}
  - {fileID: 21300000, guid: 9efc532c85bae424790eaf00af4e4bc2, type: 3}
  - {fileID: 21300000, guid: 1d4ba96c3b2494b308fc14c3040fdfcf, type: 3}
  - {fileID: 21300000, guid: 610aa39c176fe44d7a32acb620a88d82, type: 3}
  - {fileID: 21300000, guid: 34b63ccc9e82c43d7b6c7a7fefd05777, type: 3}
  - {fileID: 21300000, guid: ecf3fdcc12e2f4d9883cda88c09c679e, type: 3}
  - {fileID: 21300000, guid: 94b3c32d4943d4da7809f1dd33ac54c6, type: 3}
  - {fileID: 21300000, guid: 100bedfd859910a48baaf9559e513f68, type: 3}
  - {fileID: 21300000, guid: 0f07522ec40464af38bc759ef6d6236a, type: 3}
  - {fileID: 21300000, guid: 4a71d32ebc98d43c08dfe545be93aefc, type: 3}
  - {fileID: 21300000, guid: d6b6962e37ad543f7a43e7f58e950870, type: 3}
  - {fileID: 21300000, guid: 9a5eac6efe7a84256b9c64d64c512244, type: 3}
  - {fileID: 21300000, guid: ef63e48e9c0d6104b88e5a5d28ca78e6, type: 3}
  - {fileID: 21300000, guid: 909bb5eeb972848eeb15a2c188b05d1c, type: 3}
  - {fileID: 21300000, guid: fd2adc0fe947246248b92c656db6c3f2, type: 3}
  - {fileID: 21300000, guid: 55df3f1f5a230e140aee5c83a2dd21ed, type: 3}
  - {fileID: 21300000, guid: 8a4f452fb31bc44a49cf799a02616e8e, type: 3}
  - {fileID: 21300000, guid: 87d5059f585b3b74092344404ef2df05, type: 3}
  m_PackedSpriteNamesToIndex:
  - Base
  - spbu
  - SignS
  - SignW oneway
  - TriggerSimple_Lock
  - Blocker_Unlock
  - taman1
  - PoliceN
  - ParkN
  - RoadNSWE
  - RoadSE
  - warehouse
  - PondN
  - Pond NE
  - RoadWE
  - alfa
  - RoadNE
  - taman2
  - PoliceW
  - SignE_Press
  - TriggerPush_Lock
  - Bush1
  - RoadSWE
  - gedung
  - SignN oneway
  - warehouse2
  - EnemyS
  - EnemyN
  - Bench
  - SignS_Press
  - LampHor
  - signE oneway
  - Tree4
  - SignN_Press
  - home2
  - SignN
  - Bush2
  - PondE
  - PoliceS
  - Park NE
  - TriggerSimple_Unlock
  - EnemyW
  - EnemyE
  - Tree2
  - RoadNSE
  - RoadNSW
  - TriggerToggle_Lock
  - SignE
  - SignW
  - home3
  - Pond
  - RoadNWE
  - RoadNS
  - ParkE
  - Tree1
  - TriggerPush_Unlock
  - indomaret
  - TriggerToggle_Unlock
  - LampVer
  - Tree3
  - Park
  - SignW_Press
  - RoadSW
  - PoliceE
  - Pondfull
  - Blocker_Lock
  - home1
  - Parkfull
  - RoadNW
  - SignS oneway
  m_RenderDataMap: {}
  m_Tag: atlas_object
  m_IsVariant: 0
