%YAML 1.1
%TAG !u! tag:unity3d.com,2011:
--- !u!114 &11400000
MonoBehaviour:
  m_ObjectHideFlags: 0
  m_CorrespondingSourceObject: {fileID: 0}
  m_PrefabInstance: {fileID: 0}
  m_PrefabAsset: {fileID: 0}
  m_GameObject: {fileID: 0}
  m_Enabled: 1
  m_EditorHideFlags: 0
  m_Script: {fileID: 11500000, guid: b86ef494254ec4c6c860558b37762bb6, type: 3}
  m_Name: carTile_policeN
  m_EditorClassIdentifier: 
  m_Sprite: {fileID: 21300000, guid: 0cb203f06cf84485bba9e7e392deac92, type: 3}
  m_Color: {r: 1, g: 1, b: 1, a: 1}
  m_Transform:
    e00: 1
    e01: 0
    e02: 0
    e03: 0
    e10: 0
    e11: 1
    e12: 0
    e13: 0
    e20: 0
    e21: 0
    e22: 1
    e23: 0
    e30: 0
    e31: 0
    e32: 0
    e33: 1
  m_InstancedGameObject: {fileID: 0}
  m_Flags: 5
  m_ColliderType: 1
  prefab: {fileID: 4148830277042564066, guid: 59ada648276fa47ca8604ffca5d59f8b, type: 3}
  direction: 0
